ANIO,MES,DIA,HORA,DIA_DE_LA_SEMANA,ES_FESTIVO,NUMERO_LLAMADAS,DURACION_LLAMADA,TIEMPO_ESPERA_LLAMADA,TIEMPO_ADMINISTRATIVO_LLAMADA,TIEMPO_CONVERSACION_LLAMADA,TIEMPO_RETENCION_LLAMADA,NUMERO_PREMIUM
2017,7,1,0,5,1,40,575.5,374.0,0.0,0.0,0.0,6
2017,7,1,1,5,1,29,479.0,317.0,3.0,182.0,0.0,1
2017,7,1,2,5,1,9,247.0,15.0,3.0,134.0,0.0,1
2017,7,1,3,5,1,12,461.5,250.0,3.0,133.0,0.0,0
2017,7,1,4,5,1,15,278.0,14.0,15.0,188.0,0.0,0
2017,7,1,5,5,1,10,285.5,10.5,13.5,186.5,0.0,1
2017,7,1,6,5,1,6,391.0,26.5,3.0,216.5,0.0,0
2017,7,1,7,5,1,21,320.0,9.0,23.0,217.0,0.0,1
2017,7,1,8,5,1,106,310.5,9.5,20.0,218.5,0.0,8
2017,7,1,9,5,1,197,325.0,9.0,18.0,228.0,0.0,20
2017,7,1,10,5,1,300,342.5,9.5,16.0,248.5,0.0,39
2017,7,1,11,5,1,342,331.0,10.0,17.0,237.5,0.0,30
2017,7,1,12,5,1,355,342.0,12.0,17.0,228.0,0.0,49
2017,7,1,13,5,1,345,311.0,9.0,16.0,206.0,0.0,33
2017,7,1,14,5,1,221,321.0,9.0,16.0,221.0,0.0,21
2017,7,1,15,5,1,146,307.0,9.0,17.0,209.0,0.0,5
2017,7,1,16,5,1,132,305.0,14.0,15.5,217.0,0.0,16
2017,7,1,17,5,1,181,317.0,10.0,14.0,208.0,0.0,16
2017,7,1,18,5,1,191,312.0,9.0,16.0,228.0,0.0,18
2017,7,1,19,5,1,193,314.0,10.0,16.0,226.0,0.0,22
2017,7,1,20,5,1,197,333.0,10.0,16.0,227.0,0.0,17
2017,7,1,21,5,1,140,325.5,9.0,15.0,220.0,0.0,11
2017,7,1,22,5,1,106,323.0,9.0,13.5,221.0,0.0,10
2017,7,1,23,5,1,59,366.0,32.0,15.0,205.0,0.0,3
2017,7,2,0,6,1,39,408.0,198.0,3.0,133.0,0.0,1
2017,7,2,1,6,1,14,296.0,9.0,23.0,184.0,0.0,0
2017,7,2,2,6,1,16,316.0,163.0,0.0,0.0,0.0,0
2017,7,2,3,6,1,12,378.0,113.5,2.0,52.5,0.0,1
2017,7,2,4,6,1,8,156.0,17.0,0.5,62.5,0.0,0
2017,7,2,5,6,1,6,305.0,16.0,20.0,233.0,0.0,0
2017,7,2,6,6,1,8,293.0,12.0,13.5,196.5,0.0,1
2017,7,2,7,6,1,15,361.0,9.0,16.0,280.0,0.0,1
2017,7,2,8,6,1,40,307.5,9.0,17.0,206.0,0.0,4
2017,7,2,9,6,1,59,312.0,9.0,16.0,230.0,0.0,11
2017,7,2,10,6,1,107,307.0,9.0,23.0,212.0,0.0,12
2017,7,2,11,6,1,169,318.0,9.0,19.0,219.0,0.0,26
2017,7,2,12,6,1,192,297.0,9.0,17.0,207.0,0.0,21
2017,7,2,13,6,1,175,307.0,10.0,17.0,207.0,0.0,19
2017,7,2,14,6,1,114,363.5,9.0,18.0,262.5,0.0,16
2017,7,2,15,6,1,80,296.5,9.0,17.5,179.5,0.0,6
2017,7,2,16,6,1,83,317.0,10.0,16.0,212.0,0.0,9
2017,7,2,17,6,1,82,302.0,9.0,18.0,202.5,0.0,7
2017,7,2,18,6,1,118,294.5,9.0,22.5,195.5,0.0,8
2017,7,2,19,6,1,139,327.0,10.0,16.0,221.0,0.0,20
2017,7,2,20,6,1,115,340.0,9.0,18.0,230.0,0.0,18
2017,7,2,21,6,1,132,303.5,11.0,18.0,201.5,0.0,19
2017,7,2,22,6,1,102,312.5,26.0,13.0,213.5,0.0,5
2017,7,2,23,6,1,39,422.0,89.0,4.0,224.0,0.0,3
2017,7,3,0,0,0,30,481.5,198.5,3.0,128.0,0.0,1
2017,7,3,1,0,0,19,294.0,10.0,9.0,160.0,0.0,3
2017,7,3,2,0,0,3,309.0,46.0,3.0,251.0,0.0,0
2017,7,3,3,0,0,4,339.5,56.0,7.5,240.0,0.0,0
2017,7,3,4,0,0,5,317.0,15.0,4.0,177.0,0.0,0
2017,7,3,5,0,0,5,337.0,111.0,3.0,168.0,0.0,0
2017,7,3,6,0,0,7,465.0,14.0,3.0,366.0,0.0,1
2017,7,3,7,0,0,55,321.0,12.0,19.0,233.0,0.0,5
2017,7,3,8,0,0,168,346.0,10.0,23.0,222.0,0.0,14
2017,7,3,9,0,0,407,325.0,9.0,15.0,211.0,0.0,35
2017,7,3,10,0,0,490,330.0,9.0,15.0,221.0,0.0,51
2017,7,3,11,0,0,593,401.0,70.0,15.0,222.0,0.0,59
2017,7,3,12,0,0,619,365.0,49.0,15.0,214.0,0.0,57
2017,7,3,13,0,0,605,319.0,13.0,15.0,204.0,0.0,45
2017,7,3,14,0,0,410,305.5,9.0,15.0,202.0,0.0,28
2017,7,3,15,0,0,351,347.0,9.0,15.0,236.0,0.0,28
2017,7,3,16,0,0,355,339.0,11.0,15.0,215.0,0.0,42
2017,7,3,17,0,0,418,327.5,9.0,15.0,222.0,0.0,41
2017,7,3,18,0,0,454,369.5,32.0,15.0,229.5,0.0,22
2017,7,3,19,0,0,405,363.0,9.0,15.0,256.0,0.0,32
2017,7,3,20,0,0,343,323.0,9.0,15.0,220.0,0.0,34
2017,7,3,21,0,0,229,331.0,17.0,16.0,200.0,0.0,19
2017,7,3,22,0,0,110,299.5,9.0,16.0,203.0,0.0,11
2017,7,3,23,0,0,78,319.5,10.0,17.0,220.5,0.0,9
2017,7,4,0,1,0,19,428.0,246.0,0.0,0.0,0.0,2
2017,7,4,1,1,0,12,418.5,31.5,19.0,223.0,0.0,0
2017,7,4,2,1,0,7,602.0,194.0,13.0,130.0,0.0,0
2017,7,4,3,1,0,8,346.0,11.5,11.5,220.5,0.0,1
2017,7,4,4,1,0,4,180.5,9.0,23.0,147.5,0.0,0
2017,7,4,5,1,0,9,177.0,8.0,15.0,144.0,0.0,2
2017,7,4,6,1,0,10,255.0,33.5,15.0,152.5,0.0,4
2017,7,4,7,1,0,53,338.0,15.0,22.0,217.0,0.0,9
2017,7,4,8,1,0,167,311.0,9.0,20.0,214.0,0.0,16
2017,7,4,9,1,0,340,311.5,8.0,15.0,206.0,0.0,30
2017,7,4,10,1,0,478,316.0,11.0,15.0,202.5,0.0,49
2017,7,4,11,1,0,503,365.0,40.0,15.0,224.0,0.0,51
2017,7,4,12,1,0,520,338.0,11.0,15.0,217.0,0.0,55
2017,7,4,13,1,0,483,323.0,11.0,15.0,210.0,0.0,56
2017,7,4,14,1,0,334,331.0,8.0,15.0,228.0,0.0,30
2017,7,4,15,1,0,298,353.5,8.0,15.0,247.0,0.0,18
2017,7,4,16,1,0,327,334.0,8.0,15.0,224.0,0.0,26
2017,7,4,17,1,0,349,356.0,9.0,15.0,249.0,0.0,35
2017,7,4,18,1,0,393,355.0,10.0,15.0,233.0,0.0,29
2017,7,4,19,1,0,409,341.0,10.0,15.0,241.0,0.0,36
2017,7,4,20,1,0,301,359.0,10.0,15.0,247.0,0.0,25
2017,7,4,21,1,0,201,355.0,10.0,17.0,254.0,0.0,29
2017,7,4,22,1,0,123,291.0,9.0,16.0,207.0,0.0,11
2017,7,4,23,1,0,59,309.0,9.0,16.0,218.0,0.0,4
2017,7,5,0,2,0,30,398.5,173.5,2.5,100.0,0.0,0
2017,7,5,1,2,0,17,308.0,14.0,23.0,176.0,0.0,0
2017,7,5,2,2,0,3,434.0,14.0,23.0,255.0,23.0,0
2017,7,5,3,2,0,6,254.5,8.5,11.0,209.5,0.0,1
2017,7,5,4,2,0,9,145.0,9.0,23.0,95.0,0.0,0
2017,7,5,5,2,0,7,208.0,14.0,15.0,132.0,0.0,0
2017,7,5,6,2,0,11,476.0,133.0,3.0,113.0,0.0,2
2017,7,5,7,2,0,44,286.5,9.0,19.0,164.0,0.0,5
2017,7,5,8,2,0,204,343.5,10.0,21.5,218.0,0.0,17
2017,7,5,9,2,0,503,346.0,10.0,15.0,232.0,0.0,35
2017,7,5,10,2,0,669,368.0,40.0,15.0,221.0,0.0,55
2017,7,5,11,2,0,672,323.0,13.0,15.0,203.5,0.0,55
2017,7,5,12,2,0,631,324.0,10.0,15.0,220.0,0.0,43
2017,7,5,13,2,0,592,312.0,10.0,15.0,210.0,0.0,53
2017,7,5,14,2,0,400,326.0,9.0,15.0,230.0,0.0,34
2017,7,5,15,2,0,391,368.0,14.0,15.0,232.0,0.0,24
2017,7,5,16,2,0,413,340.0,9.0,15.0,224.0,0.0,27
2017,7,5,17,2,0,394,356.5,7.0,15.0,247.0,0.0,35
2017,7,5,18,2,0,402,347.0,8.0,15.0,244.5,0.0,23
2017,7,5,19,2,0,348,360.0,8.0,15.0,255.5,0.0,34
2017,7,5,20,2,0,323,354.0,9.0,15.0,260.0,0.0,27
2017,7,5,21,2,0,204,352.5,11.0,15.0,232.0,0.0,20
2017,7,5,22,2,0,118,324.5,11.0,16.0,205.0,0.0,17
2017,7,5,23,2,0,67,365.0,9.0,15.0,226.0,0.0,9
2017,7,6,0,3,0,22,528.0,249.5,3.0,199.5,0.0,2
2017,7,6,1,3,0,16,260.5,46.0,22.0,158.5,0.0,1
2017,7,6,2,3,0,12,253.5,44.5,9.0,145.0,0.0,0
2017,7,6,3,3,0,5,342.0,9.0,15.0,222.0,0.0,0
2017,7,6,4,3,0,2,312.0,49.0,19.0,194.5,0.0,0
2017,7,6,5,3,0,3,204.0,12.0,3.0,140.0,0.0,0
2017,7,6,6,3,0,8,297.5,152.5,7.5,208.5,0.0,0
2017,7,6,7,3,0,33,302.0,10.0,21.0,219.0,0.0,5
2017,7,6,8,3,0,112,319.0,9.0,23.0,221.0,0.0,17
2017,7,6,9,3,0,336,307.0,8.0,15.0,206.5,0.0,30
2017,7,6,10,3,0,409,317.0,7.0,15.0,211.0,0.0,38
2017,7,6,11,3,0,455,321.0,10.0,15.0,205.0,0.0,49
2017,7,6,12,3,0,445,327.0,9.0,15.0,218.0,0.0,41
2017,7,6,13,3,0,430,326.0,11.0,15.0,215.0,0.0,39
2017,7,6,14,3,0,338,346.5,9.0,15.0,219.5,0.0,23
2017,7,6,15,3,0,273,331.0,8.0,15.0,226.0,0.0,31
2017,7,6,16,3,0,258,341.5,7.0,15.0,245.5,0.0,19
2017,7,6,17,3,0,327,347.0,8.0,15.0,237.0,0.0,32
2017,7,6,18,3,0,349,346.0,13.0,15.0,217.0,0.0,24
2017,7,6,19,3,0,341,360.0,9.0,15.0,238.0,0.0,26
2017,7,6,20,3,0,267,335.0,8.0,15.0,240.0,0.0,27
2017,7,6,21,3,0,195,332.0,9.0,17.0,216.0,0.0,12
2017,7,6,22,3,0,94,321.5,11.0,18.5,223.5,0.0,9
2017,7,6,23,3,0,63,286.0,9.0,23.0,175.0,0.0,8
2017,7,7,0,4,0,25,515.0,200.0,3.0,191.0,0.0,1
2017,7,7,1,4,0,12,360.0,9.0,15.0,302.5,0.0,1
2017,7,7,2,4,0,6,683.5,237.0,3.0,310.5,0.0,1
2017,7,7,3,4,0,6,401.0,11.0,3.5,244.0,1.5,0
2017,7,7,4,4,0,6,219.5,12.0,20.0,142.5,0.0,0
2017,7,7,5,4,0,4,387.5,9.0,23.5,263.0,0.0,0
2017,7,7,6,4,0,6,351.0,9.0,17.0,152.5,0.0,2
2017,7,7,7,4,0,21,307.0,13.0,15.0,181.0,0.0,2
2017,7,7,8,4,0,120,344.5,10.0,23.0,226.5,0.0,15
2017,7,7,9,4,0,268,318.0,7.0,15.0,212.5,0.0,28
2017,7,7,10,4,0,371,324.0,9.0,15.0,211.0,0.0,38
2017,7,7,11,4,0,395,327.0,11.0,15.0,208.0,0.0,36
2017,7,7,12,4,0,420,318.0,11.0,15.0,204.5,0.0,39
2017,7,7,13,4,0,370,316.0,8.0,15.0,211.5,0.0,29
2017,7,7,14,4,0,289,325.0,7.0,15.0,219.0,0.0,21
2017,7,7,15,4,0,250,341.5,7.0,15.0,244.5,0.0,34
2017,7,7,16,4,0,250,343.0,7.0,15.0,230.0,0.0,30
2017,7,7,17,4,0,288,320.5,7.0,15.0,220.5,0.0,28
2017,7,7,18,4,0,339,335.0,10.0,15.0,227.0,0.0,34
2017,7,7,19,4,0,279,328.0,9.0,15.0,235.0,0.0,30
2017,7,7,20,4,0,224,360.0,9.0,15.0,246.0,0.0,23
2017,7,7,21,4,0,186,350.0,14.0,16.0,227.0,0.0,18
2017,7,7,22,4,0,99,347.0,23.0,16.0,224.0,0.0,10
2017,7,7,23,4,0,67,315.0,16.0,23.0,204.0,0.0,9
2017,7,8,0,5,1,29,489.0,200.0,10.0,184.0,0.0,10
2017,7,8,1,5,1,19,296.0,89.0,3.0,179.0,0.0,3
2017,7,8,2,5,1,10,593.0,215.0,3.0,120.5,0.0,0
2017,7,8,3,5,1,11,353.0,77.0,3.0,154.0,0.0,0
2017,7,8,4,5,1,6,402.0,20.5,23.0,182.0,0.0,0
2017,7,8,5,5,1,7,396.0,98.0,23.0,138.0,0.0,0
2017,7,8,6,5,1,8,290.5,9.0,15.5,166.5,0.0,0
2017,7,8,7,5,1,16,352.0,14.0,17.0,245.0,0.0,0
2017,7,8,8,5,1,53,346.0,9.0,23.0,239.0,0.0,7
2017,7,8,9,5,1,128,337.0,9.0,17.5,232.0,0.0,11
2017,7,8,10,5,1,223,343.0,9.0,19.0,253.0,0.0,33
2017,7,8,11,5,1,298,348.5,9.0,17.0,246.5,0.0,40
2017,7,8,12,5,1,278,340.0,10.0,16.0,225.5,0.0,25
2017,7,8,13,5,1,228,291.0,9.0,17.5,198.5,0.0,16
2017,7,8,14,5,1,162,313.5,9.0,22.5,214.5,0.0,10
2017,7,8,15,5,1,133,327.0,9.0,20.0,239.0,0.0,10
2017,7,8,16,5,1,100,323.5,9.0,17.0,204.0,0.0,8
2017,7,8,17,5,1,122,301.5,9.0,17.0,194.5,0.0,13
2017,7,8,18,5,1,157,311.0,9.0,23.0,219.0,0.0,20
2017,7,8,19,5,1,130,319.0,9.0,20.0,223.5,0.0,14
2017,7,8,20,5,1,150,327.0,9.0,17.0,213.0,0.0,17
2017,7,8,21,5,1,102,294.5,9.0,19.0,207.5,0.0,6
2017,7,8,22,5,1,74,366.0,45.5,14.0,213.0,0.0,5
2017,7,8,23,5,1,50,385.5,73.0,13.0,207.0,0.0,2
2017,7,9,0,6,1,40,351.5,87.5,4.0,182.5,0.0,5
2017,7,9,1,6,1,26,349.5,13.0,23.0,223.0,0.0,3
2017,7,9,2,6,1,13,286.0,13.0,3.0,162.0,0.0,0
2017,7,9,3,6,1,10,394.0,11.5,23.0,237.5,0.0,2
2017,7,9,4,6,1,5,427.0,86.0,3.0,307.0,61.0,1
2017,7,9,5,6,1,8,316.5,10.0,23.0,200.0,0.0,0
2017,7,9,6,6,1,9,283.0,10.0,15.0,207.0,0.0,1
2017,7,9,7,6,1,14,420.0,10.5,14.0,305.0,0.0,1
2017,7,9,8,6,1,17,348.0,8.0,22.0,253.0,0.0,3
2017,7,9,9,6,1,56,352.0,9.5,19.5,254.0,0.0,6
2017,7,9,10,6,1,88,319.5,9.0,17.0,218.5,0.0,13
2017,7,9,11,6,1,101,310.0,9.0,19.0,217.0,0.0,6
2017,7,9,12,6,1,131,306.0,8.0,20.0,220.0,0.0,16
2017,7,9,13,6,1,107,333.0,9.0,17.0,250.0,0.0,12
2017,7,9,14,6,1,94,276.5,9.0,20.0,175.5,0.0,6
2017,7,9,15,6,1,85,296.0,9.0,23.0,199.0,0.0,9
2017,7,9,16,6,1,71,329.0,9.0,23.0,193.0,0.0,4
2017,7,9,17,6,1,89,343.0,12.0,22.0,238.0,0.0,13
2017,7,9,18,6,1,93,352.0,9.0,18.0,250.0,0.0,13
2017,7,9,19,6,1,100,311.5,9.0,21.0,222.0,0.0,9
2017,7,9,20,6,1,129,333.0,9.0,23.0,222.0,0.0,16
2017,7,9,21,6,1,93,304.0,9.0,19.0,196.0,0.0,11
2017,7,9,22,6,1,64,346.0,11.5,20.5,224.5,0.0,12
2017,7,9,23,6,1,37,321.0,12.0,23.0,219.0,0.0,3
2017,7,10,0,0,0,33,519.0,299.0,3.0,168.0,0.0,1
2017,7,10,1,0,0,13,417.0,9.0,4.0,161.0,0.0,1
2017,7,10,2,0,0,10,366.0,290.5,0.0,0.0,0.0,0
2017,7,10,3,0,0,10,398.0,97.5,3.0,68.5,0.0,0
2017,7,10,4,0,0,2,238.5,11.0,13.0,151.0,0.0,0
2017,7,10,5,0,0,3,334.0,9.0,3.0,234.0,0.0,0
2017,7,10,6,0,0,6,336.0,35.0,11.0,192.0,0.0,1
2017,7,10,7,0,0,39,298.0,9.0,18.0,164.0,0.0,5
2017,7,10,8,0,0,134,315.5,9.5,23.0,199.0,0.0,14
2017,7,10,9,0,0,315,304.0,9.0,15.0,202.0,0.0,38
2017,7,10,10,0,0,395,325.0,9.0,15.0,207.0,0.0,38
2017,7,10,11,0,0,494,324.0,10.0,15.0,214.5,0.0,34
2017,7,10,12,0,0,495,303.0,11.0,15.0,195.0,0.0,54
2017,7,10,13,0,0,460,306.0,11.0,15.0,198.5,0.0,42
2017,7,10,14,0,0,317,322.0,7.0,15.0,224.0,0.0,24
2017,7,10,15,0,0,270,323.0,7.0,15.0,223.0,0.0,21
2017,7,10,16,0,0,272,376.5,10.0,15.0,246.5,0.0,27
2017,7,10,17,0,0,331,315.0,8.0,15.0,221.0,0.0,31
2017,7,10,18,0,0,343,359.0,9.0,15.0,247.0,0.0,24
2017,7,10,19,0,0,381,362.0,14.0,15.0,232.0,0.0,39
2017,7,10,20,0,0,263,324.0,9.0,15.0,226.0,0.0,31
2017,7,10,21,0,0,189,329.0,15.0,15.0,216.0,0.0,21
2017,7,10,22,0,0,99,362.0,35.0,14.0,212.0,0.0,8
2017,7,10,23,0,0,55,337.0,19.0,16.0,172.0,0.0,1
2017,7,11,0,1,0,27,578.0,336.0,0.0,0.0,0.0,1
2017,7,11,1,1,0,7,274.0,9.0,23.0,170.0,0.0,0
2017,7,11,2,1,0,6,703.0,389.5,3.0,186.5,1.5,0
2017,7,11,3,1,0,6,311.0,60.5,3.5,226.0,3.0,0
2017,7,11,4,1,0,2,429.5,16.5,14.0,303.0,32.0,1
2017,7,11,5,1,0,4,194.0,10.0,13.0,66.0,0.0,1
2017,7,11,6,1,0,11,338.0,9.0,14.0,245.0,0.0,0
2017,7,11,7,1,0,34,395.5,9.0,18.5,291.5,0.0,6
2017,7,11,8,1,0,108,350.5,13.5,20.0,227.0,0.0,18
2017,7,11,9,1,0,317,320.0,8.0,15.0,212.0,0.0,33
2017,7,11,10,1,0,388,309.0,7.0,15.0,197.5,0.0,31
2017,7,11,11,1,0,430,321.0,9.0,15.0,215.0,0.0,49
2017,7,11,12,1,0,464,327.0,11.0,15.0,208.5,0.0,52
2017,7,11,13,1,0,379,335.0,8.0,15.0,227.0,0.0,35
2017,7,11,14,1,0,268,295.5,8.0,15.0,202.5,0.0,24
2017,7,11,15,1,0,234,335.5,8.0,15.0,233.5,0.0,23
2017,7,11,16,1,0,248,350.5,9.0,15.0,241.0,0.0,27
2017,7,11,17,1,0,275,354.0,8.0,15.0,244.0,0.0,20
2017,7,11,18,1,0,318,367.0,10.0,15.0,234.0,0.0,35
2017,7,11,19,1,0,290,362.0,8.0,15.0,260.5,0.0,29
2017,7,11,20,1,0,219,344.0,8.0,15.0,250.0,0.0,19
2017,7,11,21,1,0,192,324.5,12.0,16.0,213.5,0.0,15
2017,7,11,22,1,0,99,325.0,10.0,23.0,206.0,0.0,16
2017,7,11,23,1,0,48,285.0,9.0,23.0,211.0,0.0,3
2017,7,12,0,2,0,21,623.0,182.0,13.0,293.0,0.0,2
2017,7,12,1,2,0,13,383.0,15.0,13.0,222.0,0.0,0
2017,7,12,2,2,0,4,378.0,10.0,21.0,245.0,0.0,2
2017,7,12,3,2,0,2,356.0,9.5,13.0,295.0,0.0,0
2017,7,12,4,2,0,6,400.5,14.0,23.0,277.0,0.0,0
2017,7,12,5,2,0,2,336.5,8.5,13.0,278.5,0.0,0
2017,7,12,6,2,0,6,283.0,17.0,10.5,187.5,0.0,1
2017,7,12,7,2,0,30,278.5,9.5,12.0,201.0,0.0,2
2017,7,12,8,2,0,108,311.5,11.0,23.0,206.5,0.0,13
2017,7,12,9,2,0,267,299.0,8.0,15.0,202.0,0.0,26
2017,7,12,10,2,0,361,313.0,8.0,15.0,211.0,0.0,45
2017,7,12,11,2,0,402,324.0,9.0,15.0,215.5,0.0,50
2017,7,12,12,2,0,403,305.0,8.0,15.0,200.0,0.0,35
2017,7,12,13,2,0,378,330.5,10.0,15.0,204.0,0.0,38
2017,7,12,14,2,0,275,321.0,9.0,15.0,205.0,0.0,18
2017,7,12,15,2,0,256,320.0,7.0,15.0,217.5,0.0,25
2017,7,12,16,2,0,247,345.0,8.0,15.0,233.0,0.0,13
2017,7,12,17,2,0,293,342.0,9.0,15.0,249.0,0.0,24
2017,7,12,18,2,0,288,329.5,11.0,15.0,210.0,0.0,31
2017,7,12,19,2,0,284,331.0,8.0,15.0,232.5,0.0,21
2017,7,12,20,2,0,230,332.0,8.0,15.0,238.0,0.0,26
2017,7,12,21,2,0,171,302.0,11.0,17.0,196.0,0.0,17
2017,7,12,22,2,0,111,309.0,15.0,21.0,194.0,0.0,21
2017,7,12,23,2,0,67,307.0,10.0,23.0,193.0,0.0,9
2017,7,13,0,3,0,25,438.0,73.0,22.0,205.0,0.0,3
2017,7,13,1,3,0,11,450.0,11.0,23.0,382.0,0.0,0
2017,7,13,2,3,0,4,223.5,11.5,3.0,144.0,0.0,0
2017,7,13,3,3,0,1,364.0,11.0,5.0,276.0,3.0,0
2017,7,13,4,3,0,5,152.0,14.0,23.0,95.0,0.0,1
2017,7,13,5,3,0,5,499.0,112.0,3.0,312.0,0.0,1
2017,7,13,6,3,0,6,275.5,16.0,16.0,155.0,0.0,0
2017,7,13,7,3,0,41,311.0,9.0,19.0,210.0,0.0,2
2017,7,13,8,3,0,123,315.0,12.0,18.0,195.0,0.0,13
2017,7,13,9,3,0,228,315.0,7.0,15.0,213.5,0.0,21
2017,7,13,10,3,0,317,331.0,7.0,15.0,225.0,0.0,37
2017,7,13,11,3,0,384,308.0,10.0,15.0,198.5,0.0,41
2017,7,13,12,3,0,403,343.0,29.0,15.0,194.0,0.0,38
2017,7,13,13,3,0,356,318.5,8.0,15.0,203.0,0.0,48
2017,7,13,14,3,0,234,309.5,9.0,15.0,201.5,0.0,14
2017,7,13,15,3,0,224,347.5,7.0,15.0,230.5,0.0,25
2017,7,13,16,3,0,251,338.0,9.0,15.0,225.0,0.0,22
2017,7,13,17,3,0,242,329.5,7.0,15.0,239.5,0.0,25
2017,7,13,18,3,0,271,336.0,8.0,15.0,235.0,0.0,25
2017,7,13,19,3,0,307,310.0,7.0,15.0,221.0,0.0,22
2017,7,13,20,3,0,220,346.0,7.0,15.0,251.0,0.0,17
2017,7,13,21,3,0,149,311.0,13.0,16.0,206.0,0.0,14
2017,7,13,22,3,0,90,344.0,23.0,22.0,224.0,0.0,5
2017,7,13,23,3,0,54,304.0,9.0,23.0,225.0,0.0,5
2017,7,14,0,4,0,22,442.0,140.5,4.0,172.0,0.0,0
2017,7,14,1,4,0,16,267.5,9.0,23.0,175.0,0.0,0
2017,7,14,2,4,0,5,449.0,94.0,4.0,293.0,0.0,0
2017,7,14,3,4,0,2,695.0,107.0,4.0,535.0,1.5,0
2017,7,14,4,4,0,3,238.0,14.0,14.0,155.0,0.0,0
2017,7,14,5,4,0,4,336.0,12.0,13.0,277.0,0.0,1
2017,7,14,6,4,0,2,296.5,72.5,9.0,163.5,0.0,0
2017,7,14,7,4,0,29,241.0,10.0,17.0,165.0,0.0,3
2017,7,14,8,4,0,87,329.0,18.0,21.0,200.0,0.0,10
2017,7,14,9,4,0,205,320.0,8.0,15.0,212.0,0.0,24
2017,7,14,10,4,0,339,318.0,8.0,15.0,205.0,0.0,32
2017,7,14,11,4,0,397,304.0,12.0,15.0,186.0,0.0,62
2017,7,14,12,4,0,415,325.0,22.0,15.0,196.0,0.0,40
2017,7,14,13,4,0,387,324.0,17.0,15.0,200.0,0.0,30
2017,7,14,14,4,0,268,364.0,9.0,15.0,234.0,0.0,20
2017,7,14,15,4,0,227,323.0,7.0,15.0,224.0,0.0,20
2017,7,14,16,4,0,238,348.5,9.0,15.0,232.0,0.0,16
2017,7,14,17,4,0,264,324.5,8.0,15.0,215.0,0.0,25
2017,7,14,18,4,0,257,334.0,8.0,15.0,230.0,0.0,22
2017,7,14,19,4,0,257,297.0,7.0,15.0,212.0,0.0,29
2017,7,14,20,4,0,198,310.5,8.0,15.0,213.0,0.0,22
2017,7,14,21,4,0,165,304.0,14.0,18.0,200.0,0.0,19
2017,7,14,22,4,0,91,353.0,33.0,12.0,189.0,0.0,10
2017,7,14,23,4,0,58,346.5,38.0,23.0,211.5,0.0,4
2017,7,15,0,5,1,30,668.0,540.0,0.0,0.0,0.0,0
2017,7,15,1,5,1,23,340.0,93.0,3.0,145.0,0.0,1
2017,7,15,2,5,1,26,356.0,217.5,0.0,0.0,0.0,1
2017,7,15,3,5,1,9,355.0,12.0,3.0,109.0,0.0,0
2017,7,15,4,5,1,3,251.0,13.0,15.0,204.0,28.0,0
2017,7,15,5,5,1,9,332.0,60.0,5.0,197.0,0.0,0
2017,7,15,6,5,1,3,277.0,6.0,3.0,140.0,0.0,1
2017,7,15,7,5,1,22,303.0,9.5,3.0,222.5,0.0,1
2017,7,15,8,5,1,63,276.0,9.0,17.0,231.0,0.0,10
2017,7,15,9,5,1,124,353.5,9.0,20.0,250.0,0.0,9
2017,7,15,10,5,1,203,320.0,9.0,18.0,224.0,0.0,20
2017,7,15,11,5,1,224,335.5,9.0,19.0,241.0,0.0,29
2017,7,15,12,5,1,265,343.0,9.0,23.0,236.0,0.0,47
2017,7,15,13,5,1,217,321.0,9.0,17.0,228.0,0.0,25
2017,7,15,14,5,1,143,314.0,9.0,20.0,223.0,0.0,12
2017,7,15,15,5,1,108,321.5,9.0,16.0,216.0,0.0,12
2017,7,15,16,5,1,118,270.0,9.0,14.5,192.5,0.0,9
2017,7,15,17,5,1,91,283.0,9.0,16.0,193.0,0.0,14
2017,7,15,18,5,1,109,312.0,9.0,16.0,236.0,0.0,12
2017,7,15,19,5,1,127,299.0,9.0,18.0,204.0,0.0,13
2017,7,15,20,5,1,111,292.0,9.0,17.0,211.0,0.0,12
2017,7,15,21,5,1,96,304.5,9.0,16.0,228.5,0.0,3
2017,7,15,22,5,1,63,260.0,9.0,14.0,187.0,0.0,8
2017,7,15,23,5,1,55,278.0,9.0,14.0,204.0,0.0,4
2017,7,16,0,6,1,26,426.0,162.5,3.0,168.5,0.0,2
2017,7,16,1,6,1,23,318.0,29.0,10.0,193.0,0.0,2
2017,7,16,2,6,1,13,254.0,125.0,0.0,0.0,0.0,0
2017,7,16,3,6,1,7,274.0,8.0,2.0,159.0,0.0,0
2017,7,16,4,6,1,8,237.5,13.0,4.0,175.0,0.0,0
2017,7,16,5,6,1,6,244.0,16.0,2.0,159.5,0.0,0
2017,7,16,6,6,1,4,271.5,9.0,49.0,187.5,0.0,0
2017,7,16,7,6,1,12,198.0,12.0,15.5,140.5,0.0,2
2017,7,16,8,6,1,16,353.5,9.0,16.0,299.5,0.0,4
2017,7,16,9,6,1,50,368.0,9.5,16.5,288.5,0.0,5
2017,7,16,10,6,1,82,325.0,9.0,17.0,233.5,0.0,19
2017,7,16,11,6,1,116,337.0,9.0,16.0,220.0,0.0,19
2017,7,16,12,6,1,108,313.0,9.0,17.5,213.0,0.0,10
2017,7,16,13,6,1,100,303.5,9.0,16.0,204.0,0.0,8
2017,7,16,14,6,1,79,287.0,9.0,23.0,205.0,0.0,9
2017,7,16,15,6,1,53,283.0,9.0,17.0,191.0,0.0,7
2017,7,16,16,6,1,62,298.0,9.0,15.0,220.0,0.0,5
2017,7,16,17,6,1,59,334.0,9.0,22.0,256.0,0.0,4
2017,7,16,18,6,1,76,318.5,9.0,17.0,245.5,0.0,6
2017,7,16,19,6,1,88,332.5,9.0,18.0,249.0,0.0,9
2017,7,16,20,6,1,85,273.0,9.0,15.0,192.0,0.0,4
2017,7,16,21,6,1,91,307.0,9.0,14.0,203.0,0.0,8
2017,7,16,22,6,1,65,305.0,9.0,17.0,229.0,0.0,9
2017,7,16,23,6,1,37,261.0,10.0,10.0,171.0,0.0,10
2017,7,17,0,0,0,32,336.0,102.5,14.5,192.0,0.0,2
2017,7,17,1,0,0,20,300.5,9.5,19.0,215.0,0.0,1
2017,7,17,2,0,0,8,232.5,102.5,3.0,108.0,0.0,0
2017,7,17,3,0,0,3,279.0,11.0,4.0,183.0,4.0,0
2017,7,17,4,0,0,2,273.5,9.5,13.0,221.5,0.0,0
2017,7,17,5,0,0,2,326.5,11.0,10.0,249.5,19.0,0
2017,7,17,6,0,0,6,269.5,8.0,8.0,144.5,0.0,0
2017,7,17,7,0,0,31,259.0,9.0,4.0,177.0,0.0,3
2017,7,17,8,0,0,108,363.0,16.5,17.5,228.5,0.0,8
2017,7,17,9,0,0,299,319.0,9.0,15.0,206.0,0.0,24
2017,7,17,10,0,0,361,299.0,9.0,15.0,195.0,0.0,33
2017,7,17,11,0,0,399,324.0,9.0,15.0,211.0,0.0,41
2017,7,17,12,0,0,435,345.0,34.0,15.0,199.0,0.0,31
2017,7,17,13,0,0,384,329.5,11.0,15.0,216.0,0.0,43
2017,7,17,14,0,0,302,331.5,8.0,15.0,215.5,0.0,21
2017,7,17,15,0,0,238,298.5,6.0,15.0,207.0,0.0,28
2017,7,17,16,0,0,264,338.0,10.0,15.0,215.5,0.0,28
2017,7,17,17,0,0,279,319.0,6.0,15.0,212.0,0.0,26
2017,7,17,18,0,0,316,348.0,9.5,15.0,227.5,0.0,30
2017,7,17,19,0,0,281,358.0,9.0,15.0,236.0,0.0,33
2017,7,17,20,0,0,254,313.5,8.0,15.0,221.0,0.0,24
2017,7,17,21,0,0,158,302.0,9.0,15.0,198.0,0.0,20
2017,7,17,22,0,0,84,332.5,15.5,14.5,196.0,0.0,13
2017,7,17,23,0,0,36,256.0,9.0,23.0,172.5,0.0,2
2017,7,18,0,1,0,18,472.5,301.5,1.5,185.5,0.0,3
2017,7,18,1,1,0,14,248.0,17.5,16.0,123.5,0.0,2
2017,7,18,2,1,0,4,358.5,8.0,23.0,173.5,0.0,1
2017,7,18,3,1,0,2,391.5,8.5,19.5,323.5,0.0,0
2017,7,18,4,1,0,5,218.0,9.0,8.0,119.0,0.0,0
2017,7,18,5,1,0,1,229.0,12.0,3.0,182.0,0.0,0
2017,7,18,6,1,0,12,236.5,10.5,20.0,193.0,0.0,0
2017,7,18,7,1,0,17,251.0,9.0,15.0,191.0,0.0,0
2017,7,18,8,1,0,91,304.0,9.0,23.0,192.0,0.0,5
2017,7,18,9,1,0,266,326.0,11.0,15.0,212.5,0.0,27
2017,7,18,10,1,0,350,310.5,9.0,15.0,204.0,0.0,33
2017,7,18,11,1,0,379,312.0,7.0,15.0,206.0,0.0,40
2017,7,18,12,1,0,398,311.0,8.0,15.0,206.5,0.0,38
2017,7,18,13,1,0,353,329.0,7.0,15.0,214.0,0.0,26
2017,7,18,14,1,0,265,312.0,7.0,15.0,221.0,0.0,22
2017,7,18,15,1,0,207,334.0,7.0,15.0,240.0,0.0,14
2017,7,18,16,1,0,248,343.0,9.0,15.0,236.0,0.0,18
2017,7,18,17,1,0,261,326.0,8.0,15.0,225.0,0.0,30
2017,7,18,18,1,0,274,325.0,9.5,15.0,215.0,0.0,29
2017,7,18,19,1,0,311,315.0,9.0,15.0,208.0,0.0,27
2017,7,18,20,1,0,222,335.0,8.0,15.0,227.5,0.0,23
2017,7,18,21,1,0,154,317.0,9.0,13.5,200.0,0.0,14
2017,7,18,22,1,0,77,360.0,16.0,15.0,235.0,0.0,9
2017,7,18,23,1,0,48,306.0,9.0,22.5,207.5,0.0,8
2017,7,19,0,2,0,20,336.5,117.0,3.0,181.5,0.0,3
2017,7,19,1,2,0,20,262.5,11.0,17.0,137.5,0.0,0
2017,7,19,2,2,0,9,269.0,15.0,15.0,176.0,0.0,0
2017,7,19,3,2,0,5,228.0,9.0,13.0,104.0,0.0,0
2017,7,19,4,2,0,6,275.0,10.5,11.0,203.0,0.0,0
2017,7,19,5,2,0,3,294.0,8.0,5.0,163.0,10.0,0
2017,7,19,6,2,0,8,340.5,8.5,15.0,232.0,0.0,1
2017,7,19,7,2,0,28,317.0,9.0,9.5,223.5,0.0,9
2017,7,19,8,2,0,90,370.5,9.0,23.0,225.5,0.0,12
2017,7,19,9,2,0,299,306.0,8.0,15.0,198.0,0.0,30
2017,7,19,10,2,0,332,309.0,7.0,15.0,202.5,0.0,38
2017,7,19,11,2,0,380,307.5,9.0,15.0,197.0,0.0,46
2017,7,19,12,2,0,392,345.0,11.0,15.0,215.0,0.0,34
2017,7,19,13,2,0,358,313.0,9.0,15.0,204.5,0.0,35
2017,7,19,14,2,0,272,317.5,7.0,15.0,219.0,0.0,16
2017,7,19,15,2,0,184,324.5,6.0,15.0,220.5,0.0,12
2017,7,19,16,2,0,237,318.0,7.0,15.0,216.0,0.0,23
2017,7,19,17,2,0,264,350.0,7.0,15.0,226.0,0.0,30
2017,7,19,18,2,0,283,344.0,9.0,15.0,232.0,0.0,25
2017,7,19,19,2,0,267,288.0,7.0,15.0,196.0,0.0,18
2017,7,19,20,2,0,262,338.0,8.0,15.0,240.0,0.0,25
2017,7,19,21,2,0,190,339.5,9.0,16.0,228.0,0.0,10
2017,7,19,22,2,0,84,416.0,63.0,13.0,227.5,0.0,9
2017,7,19,23,2,0,39,377.0,11.0,15.0,224.0,0.0,8
2017,7,20,0,3,0,24,473.0,165.5,3.0,123.0,0.0,3
2017,7,20,1,3,0,16,316.0,9.5,16.5,216.5,0.0,2
2017,7,20,2,3,0,6,236.5,10.5,14.5,182.0,0.0,0
2017,7,20,3,3,0,4,375.5,9.0,19.5,283.5,0.0,0
2017,7,20,4,3,0,5,211.0,11.0,3.0,103.0,0.0,0
2017,7,20,5,3,0,7,270.0,12.0,17.0,196.0,0.0,1
2017,7,20,6,3,0,8,307.5,8.5,16.0,234.0,0.0,0
2017,7,20,7,3,0,19,336.0,8.0,23.0,226.0,0.0,2
2017,7,20,8,3,0,92,384.0,18.0,22.5,237.0,0.0,12
2017,7,20,9,3,0,277,318.0,7.0,15.0,210.0,0.0,27
2017,7,20,10,3,0,367,338.0,7.0,15.0,220.0,0.0,39
2017,7,20,11,3,0,367,331.0,9.0,15.0,216.0,0.0,42
2017,7,20,12,3,0,412,317.0,9.0,15.0,206.5,0.0,48
2017,7,20,13,3,0,401,352.0,17.0,15.0,215.0,0.0,44
2017,7,20,14,3,0,260,311.0,7.0,15.0,222.5,0.0,29
2017,7,20,15,3,0,226,334.5,7.0,15.0,217.5,0.0,17
2017,7,20,16,3,0,230,366.5,9.0,15.0,242.0,0.0,22
2017,7,20,17,3,0,292,353.5,13.0,15.0,228.0,0.0,35
2017,7,20,18,3,0,280,333.5,8.0,15.0,223.5,0.0,34
2017,7,20,19,3,0,268,338.5,8.0,15.0,233.0,0.0,25
2017,7,20,20,3,0,228,328.0,7.0,15.0,217.5,0.0,29
2017,7,20,21,3,0,140,337.0,9.0,16.0,236.5,0.0,17
2017,7,20,22,3,0,72,351.5,15.0,8.5,216.0,0.0,4
2017,7,20,23,3,0,46,413.0,17.0,18.5,231.0,0.0,4
2017,7,21,0,4,0,30,429.0,75.5,10.5,231.0,0.0,6
2017,7,21,1,4,0,16,264.5,9.0,20.5,182.0,0.0,3
2017,7,21,2,4,0,11,281.0,9.0,14.0,205.0,0.0,0
2017,7,21,3,4,0,6,246.5,9.0,23.0,182.0,0.0,0
2017,7,21,4,4,0,1,269.0,9.0,16.0,168.0,0.0,0
2017,7,21,5,4,0,3,306.0,9.0,18.0,155.0,0.0,0
2017,7,21,6,4,0,9,313.0,13.0,15.0,203.0,0.0,1
2017,7,21,7,4,0,21,394.0,9.0,16.0,275.0,0.0,3
2017,7,21,8,4,0,92,350.5,11.0,16.0,218.5,0.0,17
2017,7,21,9,4,0,244,316.0,7.0,15.0,210.0,0.0,27
2017,7,21,10,4,0,312,350.0,9.0,15.0,231.0,0.0,29
2017,7,21,11,4,0,348,325.5,7.0,15.0,213.5,0.0,35
2017,7,21,12,4,0,361,304.0,7.0,15.0,193.0,0.0,34
2017,7,21,13,4,0,340,333.0,13.0,15.0,217.5,0.0,38
2017,7,21,14,4,0,230,297.5,7.0,15.0,191.0,0.0,22
2017,7,21,15,4,0,188,334.0,6.0,15.0,224.5,0.0,7
2017,7,21,16,4,0,227,308.0,8.0,15.0,209.0,0.0,22
2017,7,21,17,4,0,252,363.0,8.0,15.0,248.5,0.0,31
2017,7,21,18,4,0,259,341.0,9.0,15.0,233.0,0.0,20
2017,7,21,19,4,0,241,344.0,7.0,15.0,233.0,0.0,28
2017,7,21,20,4,0,227,366.0,8.0,15.0,265.0,0.0,29
2017,7,21,21,4,0,156,321.0,9.0,16.0,222.0,0.0,15
2017,7,21,22,4,0,72,358.5,16.0,14.0,270.5,0.0,6
2017,7,21,23,4,0,49,359.0,9.0,23.0,260.0,0.0,12
2017,7,22,0,5,1,34,415.5,113.0,3.0,160.0,0.0,5
2017,7,22,1,5,1,29,417.0,41.0,10.0,239.0,0.0,1
2017,7,22,2,5,1,13,293.0,25.0,13.0,186.0,0.0,0
2017,7,22,3,5,1,10,202.0,15.0,19.5,126.0,0.0,0
2017,7,22,4,5,1,9,358.0,20.0,14.0,188.0,0.0,0
2017,7,22,5,5,1,6,260.0,9.5,3.0,200.5,0.0,0
2017,7,22,6,5,1,7,210.0,9.0,18.0,165.0,0.0,0
2017,7,22,7,5,1,11,238.0,8.0,23.0,163.0,0.0,1
2017,7,22,8,5,1,66,322.5,13.0,15.5,225.5,0.0,6
2017,7,22,9,5,1,103,336.0,9.0,16.0,236.0,0.0,11
2017,7,22,10,5,1,172,338.5,9.0,19.0,240.5,0.0,28
2017,7,22,11,5,1,216,327.0,9.0,22.5,242.0,0.0,26
2017,7,22,12,5,1,258,356.0,9.0,17.0,249.0,0.0,30
2017,7,22,13,5,1,219,321.0,9.0,18.0,221.0,0.0,29
2017,7,22,14,5,1,125,298.0,9.0,18.0,202.0,0.0,16
2017,7,22,15,5,1,104,299.5,9.0,17.5,202.0,0.0,13
2017,7,22,16,5,1,80,298.0,9.0,21.0,203.0,0.0,5
2017,7,22,17,5,1,88,327.5,9.0,23.0,228.5,0.0,15
2017,7,22,18,5,1,121,331.0,9.0,23.0,203.0,0.0,9
2017,7,22,19,5,1,143,301.0,9.0,18.0,203.0,0.0,8
2017,7,22,20,5,1,137,322.0,9.0,15.0,227.0,0.0,16
2017,7,22,21,5,1,91,311.0,9.0,15.0,219.0,0.0,11
2017,7,22,22,5,1,60,293.0,13.0,20.0,195.0,0.0,4
2017,7,22,23,5,1,39,300.0,10.0,9.0,202.0,0.0,6
2017,7,23,0,6,1,29,334.0,15.0,6.0,251.0,0.0,1
2017,7,23,1,6,1,16,285.0,16.0,7.0,214.0,0.0,2
2017,7,23,2,6,1,14,384.0,12.0,1.0,210.0,0.0,0
2017,7,23,3,6,1,9,347.0,9.0,3.0,203.0,0.0,1
2017,7,23,4,6,1,12,199.5,12.5,4.0,147.5,0.0,0
2017,7,23,5,6,1,15,272.0,11.0,1.0,158.0,0.0,0
2017,7,23,6,6,1,12,289.0,14.5,6.0,216.0,0.0,0
2017,7,23,7,6,1,7,176.0,9.0,29.0,78.0,0.0,2
2017,7,23,8,6,1,31,323.0,9.0,19.0,194.0,0.0,5
2017,7,23,9,6,1,49,310.0,9.0,18.0,238.0,0.0,3
2017,7,23,10,6,1,69,300.0,9.0,16.0,236.0,0.0,13
2017,7,23,11,6,1,96,299.5,9.0,19.0,196.0,0.0,11
2017,7,23,12,6,1,99,298.0,9.0,16.0,208.0,0.0,11
2017,7,23,13,6,1,111,298.0,9.0,16.0,199.0,0.0,12
2017,7,23,14,6,1,61,294.0,9.0,14.0,232.0,0.0,9
2017,7,23,15,6,1,58,322.5,9.0,18.0,218.0,0.0,8
2017,7,23,16,6,1,64,290.5,9.0,23.0,180.0,0.0,10
2017,7,23,17,6,1,73,311.0,9.0,16.0,210.0,0.0,5
2017,7,23,18,6,1,72,301.5,9.0,11.5,202.5,0.0,6
2017,7,23,19,6,1,107,279.0,9.0,19.0,200.0,0.0,13
2017,7,23,20,6,1,92,312.5,9.0,16.0,208.5,0.0,7
2017,7,23,21,6,1,107,343.0,41.0,15.0,208.0,0.0,9
2017,7,23,22,6,1,65,306.0,10.0,13.0,218.0,0.0,6
2017,7,23,23,6,1,32,274.5,10.5,23.0,217.0,0.0,4
2017,7,24,0,0,0,32,332.5,65.0,18.5,173.5,0.0,2
2017,7,24,1,0,0,16,293.0,9.0,21.0,210.5,0.0,1
2017,7,24,2,0,0,5,278.0,9.0,11.0,232.0,0.0,0
2017,7,24,3,0,0,4,159.5,9.0,23.0,102.0,0.0,0
2017,7,24,4,0,0,3,355.0,9.0,19.0,305.0,0.0,0
2017,7,24,5,0,0,4,153.5,9.0,23.0,101.5,0.0,0
2017,7,24,6,0,0,11,243.0,9.0,16.0,195.0,0.0,1
2017,7,24,7,0,0,20,326.5,9.0,3.0,257.5,0.0,5
2017,7,24,8,0,0,115,336.0,9.0,21.0,211.0,0.0,18
2017,7,24,9,0,0,250,312.5,7.0,15.0,204.0,0.0,29
2017,7,24,10,0,0,342,311.5,8.0,15.0,217.5,0.0,41
2017,7,24,11,0,0,418,309.5,9.0,15.0,209.0,0.0,58
2017,7,24,12,0,0,436,326.5,16.0,15.0,199.0,0.0,36
2017,7,24,13,0,0,364,305.5,7.0,15.0,190.0,0.0,31
2017,7,24,14,0,0,281,315.0,7.0,15.0,216.0,0.0,23
2017,7,24,15,0,0,219,305.0,7.0,15.0,222.0,0.0,18
2017,7,24,16,0,0,262,341.0,7.0,15.0,235.0,0.0,13
2017,7,24,17,0,0,298,324.5,6.0,15.0,226.5,0.0,20
2017,7,24,18,0,0,315,334.0,12.0,15.0,210.0,0.0,38
2017,7,24,19,0,0,303,337.0,11.0,15.0,232.0,0.0,32
2017,7,24,20,0,0,231,331.0,8.0,15.0,235.0,0.0,20
2017,7,24,21,0,0,165,308.0,9.0,13.0,216.0,0.0,18
2017,7,24,22,0,0,81,341.0,13.0,14.0,216.0,0.0,3
2017,7,24,23,0,0,60,337.5,29.5,13.5,197.0,0.0,8
2017,7,25,0,1,0,29,367.0,177.0,0.0,61.0,0.0,1
2017,7,25,1,1,0,18,281.0,106.5,0.0,50.0,0.0,0
2017,7,25,2,1,0,9,317.0,89.0,3.0,122.0,0.0,0
2017,7,25,3,1,0,5,148.0,67.0,0.0,0.0,0.0,0
2017,7,25,4,1,0,6,302.0,16.0,2.0,190.0,0.0,0
2017,7,25,5,1,0,8,505.5,11.5,7.5,229.5,0.0,0
2017,7,25,6,1,0,14,363.5,47.5,7.0,225.0,0.0,0
2017,7,25,7,1,0,36,259.5,9.0,17.5,188.0,0.0,2
2017,7,25,8,1,0,106,322.5,9.0,17.5,228.0,0.0,13
2017,7,25,9,1,0,286,302.0,7.0,15.0,212.5,0.0,30
2017,7,25,10,1,0,348,306.0,8.0,15.0,206.5,0.0,27
2017,7,25,11,1,0,440,310.5,9.0,15.0,206.0,0.0,49
2017,7,25,12,1,0,425,308.0,8.0,15.0,212.0,0.0,41
2017,7,25,13,1,0,385,318.0,9.0,15.0,205.0,0.0,30
2017,7,25,14,1,0,263,337.0,7.0,15.0,229.0,0.0,20
2017,7,25,15,1,0,225,343.0,6.0,15.0,232.0,0.0,27
2017,7,25,16,1,0,229,318.0,6.0,15.0,224.0,0.0,16
2017,7,25,17,1,0,257,333.0,7.0,15.0,228.0,0.0,26
2017,7,25,18,1,0,309,351.0,9.0,15.0,239.0,0.0,31
2017,7,25,19,1,0,297,334.0,12.0,15.0,214.0,0.0,29
2017,7,25,20,1,0,218,327.0,9.0,15.0,222.0,0.0,19
2017,7,25,21,1,0,150,337.5,9.0,14.5,237.5,0.0,11
2017,7,25,22,1,0,82,342.0,13.5,16.0,219.0,0.0,8
2017,7,25,23,1,0,47,363.0,13.0,15.0,222.0,0.0,6
2017,7,26,0,2,0,32,406.5,88.5,3.0,180.5,0.0,5
2017,7,26,1,2,0,19,352.0,10.0,13.0,247.0,0.0,1
2017,7,26,2,2,0,11,330.0,106.0,0.0,0.0,0.0,0
2017,7,26,3,2,0,5,175.0,8.0,15.0,111.0,0.0,0
2017,7,26,4,2,0,2,283.0,9.0,23.0,162.5,0.0,0
2017,7,26,5,2,0,2,280.0,9.5,11.5,138.0,91.0,0
2017,7,26,6,2,0,12,345.5,91.0,3.0,163.5,0.0,1
2017,7,26,7,2,0,32,306.5,11.0,18.5,205.0,0.0,6
2017,7,26,8,2,0,106,317.0,9.0,22.0,225.5,0.0,14
2017,7,26,9,2,0,263,324.0,7.0,15.0,220.0,0.0,23
2017,7,26,10,2,0,384,309.0,8.0,15.0,206.5,0.0,34
2017,7,26,11,2,0,376,298.5,7.0,15.0,199.0,0.0,30
2017,7,26,12,2,0,433,335.0,9.0,15.0,205.0,0.0,36
2017,7,26,13,2,0,396,317.0,9.0,15.0,211.0,0.0,35
2017,7,26,14,2,0,279,343.0,7.0,15.0,241.0,0.0,29
2017,7,26,15,2,0,251,329.0,6.0,15.0,230.0,0.0,17
2017,7,26,16,2,0,242,347.5,7.0,15.0,231.5,0.0,23
2017,7,26,17,2,0,364,342.0,9.0,15.0,226.5,0.0,35
2017,7,26,18,2,0,310,308.5,7.0,15.0,211.0,0.0,34
2017,7,26,19,2,0,306,343.0,8.0,15.0,247.5,0.0,29
2017,7,26,20,2,0,227,319.0,7.0,15.0,223.0,0.0,17
2017,7,26,21,2,0,145,342.0,13.0,15.0,232.0,0.0,10
2017,7,26,22,2,0,81,430.0,104.0,4.0,219.0,0.0,8
2017,7,26,23,2,0,54,382.5,31.0,13.0,199.0,0.0,5
2017,7,27,0,3,0,25,392.0,111.0,13.0,196.0,0.0,4
2017,7,27,1,3,0,20,333.0,13.0,15.5,236.5,0.0,2
2017,7,27,2,3,0,7,257.0,9.0,23.0,195.0,0.0,1
2017,7,27,3,3,0,6,183.0,12.5,4.0,107.0,0.0,0
2017,7,27,4,3,0,1,418.0,9.0,23.0,342.0,0.0,0
2017,7,27,5,3,0,1,119.0,10.0,14.0,75.0,0.0,0
2017,7,27,6,3,0,2,155.5,8.5,23.0,116.0,0.0,0
2017,7,27,7,3,0,23,325.0,10.0,18.0,211.0,0.0,4
2017,7,27,8,3,0,125,324.0,9.0,23.0,221.0,0.0,12
2017,7,27,9,3,0,284,317.5,7.0,15.0,219.0,0.0,31
2017,7,27,10,3,0,402,325.0,9.0,15.0,222.0,0.0,51
2017,7,27,11,3,0,401,311.0,8.0,15.0,207.0,0.0,43
2017,7,27,12,3,0,425,317.0,9.0,15.0,216.0,0.0,33
2017,7,27,13,3,0,351,329.0,9.0,15.0,214.0,0.0,25
2017,7,27,14,3,0,289,319.0,7.0,15.0,202.0,0.0,17
2017,7,27,15,3,0,244,324.0,7.0,15.0,220.0,0.0,11
2017,7,27,16,3,0,276,322.5,7.0,15.0,229.0,0.0,14
2017,7,27,17,3,0,325,344.0,7.0,15.0,239.0,0.0,29
2017,7,27,18,3,0,283,351.0,7.0,15.0,244.0,0.0,25
2017,7,27,19,3,0,266,331.0,8.0,15.0,230.0,0.0,15
2017,7,27,20,3,0,250,338.0,8.0,15.0,243.0,0.0,14
2017,7,27,21,3,0,155,354.0,9.0,15.0,219.0,0.0,14
2017,7,27,22,3,0,99,311.0,13.0,15.0,197.0,0.0,9
2017,7,27,23,3,0,51,309.0,13.0,13.0,190.0,0.0,7
2017,7,28,0,4,0,21,417.0,123.0,3.0,171.0,0.0,1
2017,7,28,1,4,0,16,255.0,11.0,21.0,192.5,0.0,1
2017,7,28,2,4,0,6,348.5,13.0,12.0,215.0,0.0,0
2017,7,28,3,4,0,4,237.0,10.5,19.5,149.5,0.0,0
2017,7,28,4,4,0,6,235.0,14.5,23.0,180.0,0.0,1
2017,7,28,5,4,0,4,236.0,7.5,15.0,183.5,0.0,1
2017,7,28,6,4,0,16,256.5,8.5,19.5,199.0,0.0,2
2017,7,28,7,4,0,25,296.0,9.0,19.0,179.0,0.0,5
2017,7,28,8,4,0,134,311.5,9.0,23.0,225.0,0.0,15
2017,7,28,9,4,0,280,310.0,8.0,15.0,194.5,0.0,34
2017,7,28,10,4,0,366,308.5,8.0,15.0,200.5,0.0,32
2017,7,28,11,4,0,376,348.5,10.0,15.0,219.5,0.0,34
2017,7,28,12,4,0,457,358.0,16.0,15.0,228.0,0.0,52
2017,7,28,13,4,0,369,310.0,9.0,15.0,200.0,0.0,31
2017,7,28,14,4,0,247,327.0,7.0,15.0,227.0,0.0,27
2017,7,28,15,4,0,269,323.0,7.0,15.0,218.0,0.0,24
2017,7,28,16,4,0,330,356.5,26.5,15.0,231.0,0.0,37
2017,7,28,17,4,0,251,325.0,6.0,15.0,226.0,0.0,23
2017,7,28,18,4,0,322,328.0,9.0,15.0,234.0,0.0,32
2017,7,28,19,4,0,328,353.5,14.0,15.0,230.0,0.0,35
2017,7,28,20,4,0,261,345.0,8.0,15.0,233.0,0.0,18
2017,7,28,21,4,0,178,339.0,10.0,15.0,226.0,0.0,17
2017,7,28,22,4,0,112,327.5,16.0,12.0,210.0,0.0,8
2017,7,28,23,4,0,64,314.0,9.0,14.0,222.0,0.0,10
2017,7,29,0,5,1,30,437.0,211.5,3.0,151.5,0.0,2
2017,7,29,1,5,1,25,335.0,16.0,13.0,198.0,0.0,0
2017,7,29,2,5,1,8,350.0,111.5,7.0,65.0,0.0,0
2017,7,29,3,5,1,10,345.5,29.5,10.0,231.5,0.0,1
2017,7,29,4,5,1,11,252.0,9.0,16.0,157.0,0.0,0
2017,7,29,5,5,1,9,362.0,15.0,17.0,206.0,0.0,2
2017,7,29,6,5,1,10,329.0,61.0,3.5,223.5,0.0,0
2017,7,29,7,5,1,19,344.0,9.0,22.0,258.0,0.0,1
2017,7,29,8,5,1,74,335.5,9.0,23.0,259.5,0.0,4
2017,7,29,9,5,1,144,307.5,9.0,23.0,212.5,0.0,17
2017,7,29,10,5,1,230,320.5,9.0,22.0,227.0,0.0,34
2017,7,29,11,5,1,287,321.0,9.0,19.0,212.0,0.0,31
2017,7,29,12,5,1,310,306.0,9.0,18.5,214.0,0.0,33
2017,7,29,13,5,1,251,315.0,9.0,21.0,218.0,0.0,17
2017,7,29,14,5,1,154,333.0,9.0,16.0,238.0,0.0,14
2017,7,29,15,5,1,139,313.0,9.0,15.0,213.0,0.0,15
2017,7,29,16,5,1,111,325.0,9.0,14.0,230.0,0.0,14
2017,7,29,17,5,1,110,306.0,9.0,16.0,210.0,0.0,11
2017,7,29,18,5,1,145,334.0,9.0,16.0,224.0,0.0,14
2017,7,29,19,5,1,157,324.0,9.0,15.0,224.0,0.0,14
2017,7,29,20,5,1,136,323.0,9.0,16.5,230.5,0.0,15
2017,7,29,21,5,1,126,276.5,9.0,13.5,183.5,0.0,10
2017,7,29,22,5,1,80,345.5,10.5,14.0,227.5,0.0,8
2017,7,29,23,5,1,46,301.0,9.5,23.0,226.5,0.0,5
2017,7,30,0,6,1,28,314.5,67.5,23.0,185.5,0.0,1
2017,7,30,1,6,1,26,267.0,11.5,19.5,161.0,0.0,1
2017,7,30,2,6,1,11,397.0,214.0,1.0,226.0,0.0,0
2017,7,30,3,6,1,13,291.0,60.0,3.0,163.0,0.0,0
2017,7,30,4,6,1,16,293.5,24.5,3.0,147.5,0.0,2
2017,7,30,5,6,1,6,296.5,11.0,14.0,175.0,0.0,0
2017,7,30,6,6,1,5,335.0,9.0,19.0,235.0,0.0,1
2017,7,30,7,6,1,9,339.0,8.0,19.0,237.0,0.0,3
2017,7,30,8,6,1,27,298.0,9.0,15.0,199.0,0.0,3
2017,7,30,9,6,1,68,337.5,9.0,21.5,231.0,0.0,14
2017,7,30,10,6,1,99,311.0,9.0,19.0,209.0,0.0,8
2017,7,30,11,6,1,145,340.0,9.0,23.0,239.0,0.0,22
2017,7,30,12,6,1,151,308.0,9.0,19.0,218.0,0.0,13
2017,7,30,13,6,1,134,322.5,9.0,17.0,220.0,0.0,16
2017,7,30,14,6,1,97,270.0,9.0,21.0,172.0,0.0,8
2017,7,30,15,6,1,67,348.0,9.0,18.0,243.0,0.0,7
2017,7,30,16,6,1,58,339.5,21.0,16.0,224.0,0.0,6
2017,7,30,17,6,1,84,309.5,11.5,17.5,212.5,0.0,11
2017,7,30,18,6,1,103,318.0,9.0,22.0,213.0,0.0,11
2017,7,30,19,6,1,103,322.0,9.0,19.0,235.0,0.0,14
2017,7,30,20,6,1,121,321.0,9.0,17.0,225.0,0.0,12
2017,7,30,21,6,1,98,322.5,10.0,22.0,216.0,0.0,10
2017,7,30,22,6,1,55,293.0,9.0,20.0,194.0,0.0,3
2017,7,30,23,6,1,59,315.0,9.0,15.0,212.0,0.0,4
2017,7,31,0,0,0,29,389.0,195.0,3.0,154.0,0.0,2
2017,7,31,1,0,0,18,333.5,9.0,15.5,251.0,0.0,1
2017,7,31,2,0,0,6,320.0,17.0,3.0,165.0,10.5,0
2017,7,31,3,0,0,9,175.0,15.0,3.0,46.0,0.0,0
2017,7,31,4,0,0,6,237.0,9.0,20.5,133.5,1.5,0
2017,7,31,5,0,0,6,279.0,10.0,3.0,219.5,0.0,0
2017,7,31,6,0,0,4,366.5,107.5,3.0,235.5,0.0,0
2017,7,31,7,0,0,38,268.0,9.0,17.5,164.5,0.0,4
2017,7,31,8,0,0,152,322.0,9.0,23.0,202.5,0.0,12
2017,7,31,9,0,0,357,325.0,12.0,15.0,197.0,0.0,39
2017,7,31,10,0,0,477,280.0,9.0,15.0,188.0,0.0,53
2017,7,31,11,0,0,564,303.5,9.0,15.0,195.5,0.0,58
2017,7,31,12,0,0,522,313.5,10.0,15.0,194.5,0.0,52
2017,7,31,13,0,0,477,316.0,11.0,15.0,195.0,0.0,46
2017,7,31,14,0,0,355,320.0,8.0,15.0,214.0,0.0,30
2017,7,31,15,0,0,294,318.0,8.0,15.0,209.0,0.0,23
2017,7,31,16,0,0,301,342.0,9.0,15.0,222.0,0.0,29
2017,7,31,17,0,0,337,330.0,9.0,15.0,228.0,0.0,47
2017,7,31,18,0,0,380,336.0,9.0,15.0,241.0,0.0,44
2017,7,31,19,0,0,346,348.0,8.0,15.0,232.0,0.0,31
2017,7,31,20,0,0,283,322.0,8.0,15.0,228.0,0.0,26
2017,7,31,21,0,0,214,310.0,12.5,17.0,205.0,0.0,20
2017,7,31,22,0,0,105,347.0,73.0,14.0,176.0,0.0,6
2017,7,31,23,0,0,69,381.0,37.0,4.0,212.0,0.0,5
