ANIO,MES,DIA,HORA,DIA_DE_LA_SEMANA,ES_FESTIVO,NUMERO_LLAMADAS,DURACION_LLAMADA,TIEMPO_ESPERA_LLAMADA,TIEMPO_ADMINISTRATIVO_LLAMADA,TIEMPO_CONVERSACION_LLAMADA,TIEMPO_RETENCION_LLAMADA,NUMERO_PREMIUM
2018,1,31,23,2,0,3,417.0,309.0,0.0,3.0,0.0,0
2018,2,1,0,3,0,36,452.0,289.0,0.0,118.0,0.0,1
2018,2,1,1,3,0,15,268.0,10.0,0.0,168.0,0.0,1
2018,2,1,2,3,0,17,315.0,192.0,0.0,100.0,0.0,0
2018,2,1,3,3,0,11,357.0,19.0,0.0,99.0,0.0,0
2018,2,1,4,3,0,4,520.5,19.5,0.0,455.5,1.5,0
2018,2,1,5,3,0,5,396.0,89.0,0.0,181.0,0.0,0
2018,2,1,6,3,0,15,348.0,173.0,0.0,145.0,0.0,2
2018,2,1,7,3,0,41,322.0,6.0,0.0,210.0,0.0,2
2018,2,1,8,3,0,154,331.5,6.0,0.0,221.5,0.0,9
2018,2,1,9,3,0,393,319.0,9.0,0.0,213.0,0.0,36
2018,2,1,10,3,0,455,318.0,7.0,0.0,225.0,0.0,42
2018,2,1,11,3,0,486,320.0,10.0,0.0,216.0,0.0,31
2018,2,1,12,3,0,492,331.5,8.0,0.0,221.0,0.0,44
2018,2,1,13,3,0,451,298.0,7.0,0.0,203.0,0.0,31
2018,2,1,14,3,0,369,314.0,7.0,0.0,214.0,0.0,16
2018,2,1,15,3,0,354,330.0,6.0,0.0,231.0,0.0,30
2018,2,1,16,3,0,329,341.0,9.0,0.0,226.0,0.0,19
2018,2,1,17,3,0,355,336.0,8.0,0.0,230.0,0.0,24
2018,2,1,18,3,0,398,345.0,9.0,0.0,231.0,0.0,28
2018,2,1,19,3,0,350,327.0,8.0,0.0,227.0,0.0,25
2018,2,1,20,3,0,304,333.0,6.0,0.0,245.0,0.0,39
2018,2,1,21,3,0,190,317.0,6.0,0.0,223.5,0.0,16
2018,2,1,22,3,0,87,268.0,6.0,0.0,183.0,0.0,3
2018,2,1,23,3,0,65,258.0,6.0,0.0,170.0,0.0,7
2018,2,2,0,4,0,29,365.0,115.0,0.0,154.0,0.0,0
2018,2,2,1,4,0,17,296.0,6.0,0.0,179.0,0.0,0
2018,2,2,2,4,0,14,575.5,121.5,0.0,74.0,0.0,1
2018,2,2,3,4,0,8,459.5,199.0,0.0,131.0,0.0,0
2018,2,2,4,4,0,11,154.0,10.0,0.0,77.0,0.0,0
2018,2,2,5,4,0,5,322.0,23.0,0.0,263.0,0.0,0
2018,2,2,6,4,0,10,378.5,115.5,0.0,122.5,0.0,0
2018,2,2,7,4,0,49,330.0,6.0,0.0,226.0,0.0,4
2018,2,2,8,4,0,145,300.0,6.0,0.0,189.0,0.0,10
2018,2,2,9,4,0,318,329.0,6.0,0.0,219.5,0.0,21
2018,2,2,10,4,0,401,304.0,6.0,0.0,193.0,0.0,41
2018,2,2,11,4,0,482,337.0,7.0,0.0,227.0,0.0,40
2018,2,2,12,4,0,490,311.5,7.0,0.0,205.0,0.0,37
2018,2,2,13,4,0,432,322.5,9.0,0.0,226.5,0.0,34
2018,2,2,14,4,0,363,352.0,9.0,0.0,233.0,0.0,21
2018,2,2,15,4,0,367,345.0,6.0,0.0,230.0,0.0,31
2018,2,2,16,4,0,377,322.0,6.0,0.0,217.0,0.0,27
2018,2,2,17,4,0,387,317.0,6.0,0.0,213.0,0.0,33
2018,2,2,18,4,0,415,339.0,8.0,0.0,231.0,0.0,38
2018,2,2,19,4,0,325,331.0,6.0,0.0,238.0,0.0,25
2018,2,2,20,4,0,243,344.0,6.0,0.0,241.0,0.0,22
2018,2,2,21,4,0,158,342.5,6.0,0.0,240.0,0.0,7
2018,2,2,22,4,0,95,362.0,16.0,0.0,205.0,0.0,8
2018,2,2,23,4,0,55,302.0,6.0,0.0,209.0,0.0,2
2018,2,3,0,5,1,22,407.0,13.5,0.0,183.5,0.0,1
2018,2,3,1,5,1,13,296.0,6.0,0.0,203.0,0.0,1
2018,2,3,2,5,1,19,376.0,252.0,0.0,207.0,0.0,3
2018,2,3,3,5,1,9,540.0,53.0,0.0,284.0,0.0,3
2018,2,3,4,5,1,7,392.0,20.0,0.0,250.0,0.0,1
2018,2,3,5,5,1,11,604.0,128.0,0.0,249.0,0.0,2
2018,2,3,6,5,1,15,471.0,49.0,0.0,219.0,0.0,0
2018,2,3,7,5,1,10,263.5,5.5,0.0,211.0,1.5,2
2018,2,3,8,5,1,48,320.5,6.0,0.0,246.0,0.0,3
2018,2,3,9,5,1,153,299.0,6.0,0.0,226.0,0.0,16
2018,2,3,10,5,1,302,305.5,6.0,0.0,211.5,0.0,25
2018,2,3,11,5,1,325,327.0,9.0,0.0,228.0,0.0,30
2018,2,3,12,5,1,384,354.0,29.0,0.0,213.0,0.0,32
2018,2,3,13,5,1,316,309.5,9.5,0.0,225.5,0.0,30
2018,2,3,14,5,1,202,332.0,6.0,0.0,236.0,0.0,19
2018,2,3,15,5,1,158,313.5,6.0,0.0,212.0,0.0,14
2018,2,3,16,5,1,148,297.0,6.0,0.0,197.5,0.0,12
2018,2,3,17,5,1,179,331.0,6.0,0.0,248.0,0.0,14
2018,2,3,18,5,1,196,359.0,6.0,0.0,243.0,0.0,12
2018,2,3,19,5,1,182,314.5,6.0,0.0,235.5,0.0,13
2018,2,3,20,5,1,153,325.0,6.0,0.0,251.0,0.0,16
2018,2,3,21,5,1,117,332.0,6.0,0.0,242.0,0.0,7
2018,2,3,22,5,1,67,290.0,6.0,0.0,184.0,0.0,4
2018,2,3,23,5,1,39,288.0,6.0,0.0,185.0,0.0,4
2018,2,4,0,6,1,29,262.0,18.0,0.0,181.0,0.0,3
2018,2,4,1,6,1,14,397.5,12.0,0.0,278.5,0.0,0
2018,2,4,2,6,1,13,453.0,7.0,0.0,242.0,0.0,1
2018,2,4,3,6,1,15,303.0,166.0,0.0,51.0,0.0,0
2018,2,4,4,6,1,15,292.0,8.0,0.0,146.0,0.0,5
2018,2,4,5,6,1,6,433.0,16.5,0.0,266.0,2.0,0
2018,2,4,6,6,1,15,229.0,6.0,0.0,133.0,0.0,1
2018,2,4,7,6,1,9,272.0,6.0,0.0,231.0,0.0,0
2018,2,4,8,6,1,21,239.0,6.0,0.0,162.0,0.0,4
2018,2,4,9,6,1,49,264.0,6.0,0.0,181.0,0.0,8
2018,2,4,10,6,1,99,309.0,6.0,0.0,227.0,0.0,12
2018,2,4,11,6,1,145,306.0,6.0,0.0,203.0,0.0,17
2018,2,4,12,6,1,177,306.0,6.0,0.0,215.0,0.0,14
2018,2,4,13,6,1,174,314.5,6.0,0.0,224.0,0.0,20
2018,2,4,14,6,1,128,271.0,6.0,0.0,193.0,0.0,11
2018,2,4,15,6,1,113,288.0,6.0,0.0,217.0,0.0,7
2018,2,4,16,6,1,92,357.0,7.5,0.0,239.5,0.0,8
2018,2,4,17,6,1,74,317.0,6.0,0.0,247.5,0.0,1
2018,2,4,18,6,1,129,339.0,6.0,0.0,248.0,0.0,14
2018,2,4,19,6,1,128,339.0,6.0,0.0,236.5,0.0,16
2018,2,4,20,6,1,116,318.5,6.0,0.0,246.0,0.0,10
2018,2,4,21,6,1,91,311.0,6.0,0.0,218.0,0.0,10
2018,2,4,22,6,1,63,316.0,6.0,0.0,219.0,0.0,6
2018,2,4,23,6,1,36,301.5,6.0,0.0,211.0,0.0,5
2018,2,5,0,0,0,31,363.0,116.0,0.0,150.0,0.0,1
2018,2,5,1,0,0,28,328.5,52.5,0.0,174.0,0.0,3
2018,2,5,2,0,0,15,648.0,511.0,0.0,0.0,0.0,0
2018,2,5,3,0,0,7,466.0,192.0,0.0,71.0,0.0,0
2018,2,5,4,0,0,10,215.5,34.0,0.0,107.5,0.0,1
2018,2,5,5,0,0,6,429.0,127.0,0.0,197.0,0.0,0
2018,2,5,6,0,0,9,432.0,214.0,0.0,116.0,0.0,1
2018,2,5,7,0,0,33,336.0,6.0,0.0,242.0,0.0,0
2018,2,5,8,0,0,148,297.5,6.0,0.0,192.5,0.0,17
2018,2,5,9,0,0,415,350.0,10.0,0.0,232.0,0.0,31
2018,2,5,10,0,0,571,337.0,9.0,0.0,221.0,0.0,43
2018,2,5,11,0,0,596,316.5,8.0,0.0,207.5,0.0,48
2018,2,5,12,0,0,593,316.0,8.0,0.0,211.0,0.0,52
2018,2,5,13,0,0,535,313.0,9.0,0.0,209.0,0.0,35
2018,2,5,14,0,0,446,316.0,10.0,0.0,207.0,0.0,37
2018,2,5,15,0,0,377,344.0,6.0,0.0,236.0,0.0,38
2018,2,5,16,0,0,391,350.0,6.0,0.0,250.0,0.0,22
2018,2,5,17,0,0,447,345.0,7.0,0.0,235.0,0.0,44
2018,2,5,18,0,0,477,339.0,7.0,0.0,237.0,0.0,36
2018,2,5,19,0,0,540,351.0,9.0,0.0,229.0,0.0,45
2018,2,5,20,0,0,636,422.5,101.0,0.0,222.5,0.0,29
2018,2,5,21,0,0,248,335.0,6.0,0.0,238.0,0.0,17
2018,2,5,22,0,0,123,405.0,101.0,0.0,206.0,0.0,8
2018,2,5,23,0,0,64,303.0,33.0,0.0,183.5,0.0,5
2018,2,6,0,1,0,23,284.0,7.0,0.0,155.0,0.0,1
2018,2,6,1,1,0,18,368.0,6.5,0.0,264.5,0.0,0
2018,2,6,2,1,0,11,316.0,183.0,0.0,115.0,0.0,1
2018,2,6,3,1,0,14,590.0,371.5,0.0,88.5,0.0,1
2018,2,6,4,1,0,13,293.0,57.0,0.0,58.0,0.0,2
2018,2,6,5,1,0,7,841.0,353.0,0.0,0.0,0.0,0
2018,2,6,6,1,0,8,461.0,88.0,0.0,254.0,1.5,1
2018,2,6,7,1,0,29,321.0,6.0,0.0,194.0,3.0,2
2018,2,6,8,1,0,143,306.0,6.0,0.0,207.0,0.0,10
2018,2,6,9,1,0,343,317.0,7.0,0.0,220.0,0.0,27
2018,2,6,10,1,0,511,318.0,8.0,0.0,206.0,0.0,35
2018,2,6,11,1,0,546,297.0,10.0,0.0,202.5,0.0,49
2018,2,6,12,1,0,578,302.0,10.0,0.0,214.5,0.0,50
2018,2,6,13,1,0,533,347.0,22.0,0.0,218.0,0.0,49
2018,2,6,14,1,0,421,349.0,11.0,0.0,240.0,0.0,32
2018,2,6,15,1,0,366,323.5,6.0,0.0,229.0,0.0,37
2018,2,6,16,1,0,392,328.0,7.0,0.0,228.0,0.0,31
2018,2,6,17,1,0,421,351.0,7.0,0.0,252.0,0.0,41
2018,2,6,18,1,0,441,341.0,8.0,0.0,233.0,0.0,26
2018,2,6,19,1,0,382,349.5,8.0,0.0,239.5,0.0,32
2018,2,6,20,1,0,285,326.0,7.0,0.0,234.0,0.0,24
2018,2,6,21,1,0,174,343.5,6.0,0.0,243.5,0.0,16
2018,2,6,22,1,0,83,406.0,109.0,0.0,187.0,0.0,7
2018,2,6,23,1,0,58,511.5,199.5,0.0,226.0,0.0,6
2018,2,7,0,2,0,27,418.0,168.0,0.0,203.0,0.0,7
2018,2,7,1,2,0,13,189.0,6.0,0.0,136.0,0.0,0
2018,2,7,2,2,0,11,359.0,8.0,0.0,139.0,0.0,0
2018,2,7,3,2,0,7,509.0,83.0,0.0,132.0,0.0,0
2018,2,7,4,2,0,8,264.0,111.5,0.0,49.5,0.0,0
2018,2,7,5,2,0,5,336.0,6.0,0.0,246.0,0.0,1
2018,2,7,6,2,0,13,345.0,93.0,0.0,278.0,0.0,1
2018,2,7,7,2,0,28,261.5,6.0,0.0,175.5,0.0,3
2018,2,7,8,2,0,108,299.5,6.0,0.0,187.0,0.0,7
2018,2,7,9,2,0,310,306.0,7.0,0.0,206.0,0.0,19
2018,2,7,10,2,0,411,293.0,6.0,0.0,194.0,0.0,32
2018,2,7,11,2,0,493,318.0,7.0,0.0,216.0,0.0,38
2018,2,7,12,2,0,512,336.5,8.0,0.0,223.0,0.0,50
2018,2,7,13,2,0,455,328.0,12.0,0.0,211.0,0.0,48
2018,2,7,14,2,0,367,304.0,9.0,0.0,201.0,0.0,29
2018,2,7,15,2,0,313,320.0,6.0,0.0,212.0,0.0,32
2018,2,7,16,2,0,367,341.0,7.0,0.0,229.0,0.0,34
2018,2,7,17,2,0,402,350.5,9.0,0.0,253.5,0.0,39
2018,2,7,18,2,0,413,319.0,7.0,0.0,234.0,0.0,38
2018,2,7,19,2,0,399,335.0,8.0,0.0,235.0,0.0,29
2018,2,7,20,2,0,242,347.0,6.0,0.0,251.0,0.0,22
2018,2,7,21,2,0,157,368.0,6.0,0.0,269.0,0.0,10
2018,2,7,22,2,0,80,342.0,6.0,0.0,252.0,0.0,3
2018,2,7,23,2,0,60,260.5,6.0,0.0,189.0,0.0,6
2018,2,8,0,3,0,33,303.0,7.0,0.0,210.0,0.0,5
2018,2,8,1,3,0,25,285.0,6.0,0.0,232.0,0.0,2
2018,2,8,2,3,0,11,337.0,6.0,0.0,225.0,0.0,0
2018,2,8,3,3,0,6,263.5,13.5,0.0,146.5,0.0,0
2018,2,8,4,3,0,3,287.0,5.0,0.0,198.0,0.0,0
2018,2,8,5,3,0,8,224.5,6.0,0.0,158.5,0.0,0
2018,2,8,6,3,0,7,248.0,5.0,0.0,214.0,0.0,0
2018,2,8,7,3,0,31,379.0,6.0,0.0,256.0,0.0,1
2018,2,8,8,3,0,122,276.0,6.0,0.0,194.5,0.0,12
2018,2,8,9,3,0,280,316.0,6.5,0.0,207.5,0.0,25
2018,2,8,10,3,0,416,312.5,6.0,0.0,213.0,0.0,29
2018,2,8,11,3,0,429,314.0,8.0,0.0,196.0,0.0,29
2018,2,8,12,3,0,476,322.5,10.0,0.0,211.0,0.0,50
2018,2,8,13,3,0,403,334.0,8.0,0.0,209.0,0.0,32
2018,2,8,14,3,0,349,290.0,7.0,0.0,185.0,0.0,26
2018,2,8,15,3,0,275,326.0,6.0,0.0,228.0,0.0,21
2018,2,8,16,3,0,309,321.0,6.0,0.0,228.0,0.0,31
2018,2,8,17,3,0,362,312.5,6.0,0.0,217.5,0.0,24
2018,2,8,18,3,0,381,330.0,7.0,0.0,224.0,0.0,28
2018,2,8,19,3,0,341,312.0,6.0,0.0,214.0,0.0,23
2018,2,8,20,3,0,241,329.0,6.0,0.0,231.0,0.0,16
2018,2,8,21,3,0,132,331.5,6.0,0.0,239.0,0.0,17
2018,2,8,22,3,0,86,369.5,109.0,0.0,188.0,0.0,7
2018,2,8,23,3,0,43,294.0,6.0,0.0,216.0,0.0,9
2018,2,9,0,4,0,22,435.0,28.5,0.0,270.5,0.0,3
2018,2,9,1,4,0,11,326.0,6.0,0.0,212.0,0.0,0
2018,2,9,2,4,0,10,305.5,6.0,0.0,249.0,0.0,0
2018,2,9,3,4,0,3,344.0,6.0,0.0,155.0,0.0,1
2018,2,9,4,4,0,7,260.0,8.0,0.0,161.0,0.0,2
2018,2,9,5,4,0,2,269.0,5.5,0.0,159.5,0.0,0
2018,2,9,6,4,0,10,319.5,7.0,0.0,221.0,0.0,2
2018,2,9,7,4,0,28,324.0,6.0,20.0,208.0,0.0,3
2018,2,9,8,4,0,104,314.5,6.0,20.0,212.5,0.0,8
2018,2,9,9,4,0,299,310.0,6.0,15.0,213.0,0.0,27
2018,2,9,10,4,0,386,316.0,7.0,15.0,214.0,0.0,33
2018,2,9,11,4,0,471,324.0,19.0,15.0,204.0,0.0,47
2018,2,9,12,4,0,471,319.0,9.0,15.0,215.0,0.0,46
2018,2,9,13,4,0,434,323.0,9.0,15.0,209.0,0.0,44
2018,2,9,14,4,0,340,330.5,8.0,15.0,237.0,0.0,18
2018,2,9,15,4,0,338,315.0,6.0,15.0,220.0,0.0,31
2018,2,9,16,4,0,366,376.5,42.0,15.0,226.0,0.0,22
2018,2,9,17,4,0,361,385.0,54.0,15.0,217.0,0.0,34
2018,2,9,18,4,0,352,337.0,7.0,15.0,232.0,0.0,34
2018,2,9,19,4,0,314,338.5,6.0,15.0,236.5,0.0,23
2018,2,9,20,4,0,239,331.0,6.0,15.0,241.0,0.0,23
2018,2,9,21,4,0,168,334.0,6.0,20.0,235.5,0.0,17
2018,2,9,22,4,0,79,329.0,16.0,20.0,191.0,0.0,4
2018,2,9,23,4,0,47,293.0,6.0,20.0,202.0,0.0,5
2018,2,10,0,5,1,41,330.0,98.0,16.0,196.0,0.0,2
2018,2,10,1,5,1,39,392.0,81.0,20.0,238.0,0.0,3
2018,2,10,2,5,1,22,547.5,271.0,14.5,201.5,0.0,1
2018,2,10,3,5,1,14,457.5,324.0,10.5,111.0,0.0,0
2018,2,10,4,5,1,12,279.0,6.0,20.0,204.5,0.0,2
2018,2,10,5,5,1,14,326.0,12.5,20.0,227.5,0.0,0
2018,2,10,6,5,1,10,257.5,7.0,20.0,202.0,0.0,0
2018,2,10,7,5,1,25,310.0,6.0,15.0,210.0,0.0,3
2018,2,10,8,5,1,70,325.0,6.0,15.0,217.5,0.0,3
2018,2,10,9,5,1,192,335.0,10.0,17.0,198.5,0.0,11
2018,2,10,10,5,1,287,359.0,25.0,20.0,211.0,0.0,28
2018,2,10,11,5,1,332,293.0,6.0,20.0,201.0,0.0,34
2018,2,10,12,5,1,373,337.0,33.0,19.0,214.0,0.0,34
2018,2,10,13,5,1,322,310.5,37.0,20.0,199.0,0.0,29
2018,2,10,14,5,1,231,290.0,6.0,20.0,203.0,0.0,20
2018,2,10,15,5,1,176,315.5,6.0,20.0,218.5,0.0,9
2018,2,10,16,5,1,178,327.5,64.5,20.0,188.5,0.0,18
2018,2,10,17,5,1,181,306.0,12.0,15.0,187.0,0.0,14
2018,2,10,18,5,1,158,264.0,6.0,18.0,198.0,0.0,21
2018,2,10,19,5,1,146,330.5,6.0,20.0,218.5,0.0,14
2018,2,10,20,5,1,153,323.0,6.0,20.0,225.0,0.0,16
2018,2,10,21,5,1,122,287.5,6.0,17.0,210.0,0.0,11
2018,2,10,22,5,1,75,264.0,6.0,16.0,191.0,0.0,9
2018,2,10,23,5,1,50,306.0,6.0,20.0,218.5,0.0,4
2018,2,11,0,6,1,31,253.0,7.0,20.0,166.0,0.0,1
2018,2,11,1,6,1,27,254.0,6.0,20.0,200.0,0.0,2
2018,2,11,2,6,1,23,344.0,224.0,2.0,149.0,0.0,2
2018,2,11,3,6,1,10,236.5,22.5,14.5,119.5,0.0,0
2018,2,11,4,6,1,10,175.5,11.0,0.0,78.5,26.5,2
2018,2,11,5,6,1,14,206.0,11.5,7.5,137.5,0.0,0
2018,2,11,6,6,1,9,235.0,7.0,16.0,183.0,0.0,0
2018,2,11,7,6,1,7,310.0,6.0,13.0,250.0,0.0,1
2018,2,11,8,6,1,23,288.0,7.0,20.0,213.0,0.0,2
2018,2,11,9,6,1,57,278.0,6.0,20.0,190.0,0.0,7
2018,2,11,10,6,1,100,270.5,6.0,20.0,213.0,0.0,8
2018,2,11,11,6,1,150,278.0,6.0,20.0,195.5,0.0,15
2018,2,11,12,6,1,166,308.5,6.0,20.0,209.0,0.0,9
2018,2,11,13,6,1,137,294.0,6.0,20.0,206.0,0.0,15
2018,2,11,14,6,1,108,308.0,6.0,20.0,206.5,0.0,8
2018,2,11,15,6,1,89,309.0,6.0,20.0,238.0,0.0,4
2018,2,11,16,6,1,93,312.0,8.0,20.0,214.0,0.0,8
2018,2,11,17,6,1,102,282.5,6.0,20.0,201.5,0.0,7
2018,2,11,18,6,1,124,310.0,6.0,18.5,215.5,0.0,11
2018,2,11,19,6,1,124,315.5,6.0,20.0,208.0,0.0,14
2018,2,11,20,6,1,108,304.5,6.0,20.0,188.5,0.0,11
2018,2,11,21,6,1,97,324.0,6.0,20.0,208.0,0.0,11
2018,2,11,22,6,1,55,275.0,6.0,20.0,189.0,0.0,4
2018,2,11,23,6,1,34,267.0,6.0,20.0,211.0,0.0,2
2018,2,12,0,0,0,22,256.5,6.0,20.0,159.0,0.0,0
2018,2,12,1,0,0,17,320.0,6.0,15.0,181.0,0.0,0
2018,2,12,2,0,0,9,171.0,7.0,20.0,117.0,0.0,0
2018,2,12,3,0,0,8,326.0,6.0,15.5,214.0,0.0,0
2018,2,12,4,0,0,6,188.0,11.0,18.0,125.5,0.0,0
2018,2,12,5,0,0,5,238.0,5.0,8.0,201.0,0.0,0
2018,2,12,6,0,0,8,162.5,6.0,20.0,132.5,0.0,2
2018,2,12,7,0,0,19,239.0,6.0,20.0,160.0,0.0,2
2018,2,12,8,0,0,125,302.0,15.0,20.0,158.0,0.0,14
2018,2,12,9,0,0,354,314.5,9.0,15.0,206.0,0.0,31
2018,2,12,10,0,0,457,312.0,9.0,15.0,211.0,0.0,37
2018,2,12,11,0,0,498,315.0,10.0,15.0,199.0,0.0,36
2018,2,12,12,0,0,544,306.0,21.0,15.0,194.0,0.0,52
2018,2,12,13,0,0,476,330.0,25.0,15.0,212.5,0.0,51
2018,2,12,14,0,0,394,306.5,9.5,15.0,199.5,0.0,27
2018,2,12,15,0,0,362,338.0,7.0,15.0,213.0,0.0,20
2018,2,12,16,0,0,380,373.0,40.0,15.0,212.0,0.0,26
2018,2,12,17,0,0,345,323.0,7.0,15.0,219.0,0.0,30
2018,2,12,18,0,0,362,319.0,6.0,15.0,230.5,0.0,38
2018,2,12,19,0,0,343,317.0,6.0,15.0,220.0,0.0,34
2018,2,12,20,0,0,229,318.0,6.0,15.0,219.0,0.0,21
2018,2,12,21,0,0,149,346.0,11.0,20.0,210.0,0.0,11
2018,2,12,22,0,0,81,345.0,82.0,20.0,176.0,0.0,10
2018,2,12,23,0,0,46,297.0,12.0,20.0,202.0,0.0,3
2018,2,13,0,1,0,17,334.0,8.0,20.0,226.0,0.0,1
2018,2,13,1,1,0,11,244.0,6.0,20.0,170.0,0.0,0
2018,2,13,2,1,0,10,288.5,5.0,20.0,209.0,0.0,2
2018,2,13,3,1,0,5,144.0,5.0,20.0,87.0,0.0,1
2018,2,13,4,1,0,6,131.5,8.0,20.0,39.5,0.0,0
2018,2,13,5,1,0,3,242.0,7.0,20.0,197.0,0.0,0
2018,2,13,6,1,0,10,265.0,6.0,20.0,187.0,0.0,2
2018,2,13,7,1,0,24,290.0,6.0,16.0,204.0,0.0,1
2018,2,13,8,1,0,122,336.0,17.0,20.0,223.0,0.0,8
2018,2,13,9,1,0,309,307.0,8.0,15.0,205.0,0.0,22
2018,2,13,10,1,0,391,327.0,7.0,15.0,220.0,0.0,42
2018,2,13,11,1,0,426,323.0,7.5,15.0,214.0,0.0,37
2018,2,13,12,1,0,489,327.0,13.0,15.0,208.0,0.0,55
2018,2,13,13,1,0,458,303.0,10.0,15.0,200.0,0.0,26
2018,2,13,14,1,0,341,333.0,13.0,15.0,218.0,0.0,28
2018,2,13,15,1,0,303,342.0,8.0,15.0,216.0,0.0,30
2018,2,13,16,1,0,308,344.0,7.0,15.0,230.0,0.0,31
2018,2,13,17,1,0,326,327.0,8.0,15.0,226.0,0.0,23
2018,2,13,18,1,0,331,347.0,6.0,15.0,249.0,0.0,25
2018,2,13,19,1,0,279,317.0,6.0,15.0,233.0,0.0,18
2018,2,13,20,1,0,226,342.5,6.0,15.0,239.0,0.0,28
2018,2,13,21,1,0,137,425.0,117.0,20.0,228.0,0.0,11
2018,2,13,22,1,0,74,396.5,97.0,16.5,167.5,0.0,7
2018,2,13,23,1,0,41,325.0,7.0,20.0,235.0,0.0,6
2018,2,14,0,2,0,25,317.0,8.0,20.0,205.0,0.0,2
2018,2,14,1,2,0,11,288.0,6.0,20.0,154.0,0.0,0
2018,2,14,2,2,0,4,287.0,5.5,20.0,198.5,0.0,1
2018,2,14,3,2,0,5,373.0,6.0,20.0,258.0,52.0,0
2018,2,14,4,2,0,6,359.5,12.5,20.5,130.0,1.5,0
2018,2,14,5,2,0,10,268.5,6.0,18.0,165.5,1.5,0
2018,2,14,6,2,0,13,297.0,7.0,20.0,170.0,0.0,1
2018,2,14,7,2,0,20,278.0,6.0,20.0,176.5,0.0,3
2018,2,14,8,2,0,111,320.0,8.0,20.0,208.0,0.0,11
2018,2,14,9,2,0,284,320.0,7.0,15.0,214.0,0.0,32
2018,2,14,10,2,0,408,308.0,7.0,15.0,210.0,0.0,35
2018,2,14,11,2,0,401,320.0,7.0,15.0,213.0,0.0,31
2018,2,14,12,2,0,428,330.5,9.0,15.0,214.0,0.0,30
2018,2,14,13,2,0,407,332.0,12.0,15.0,215.0,0.0,49
2018,2,14,14,2,0,339,305.0,7.0,15.0,196.0,0.0,22
2018,2,14,15,2,0,307,319.0,6.0,15.0,216.0,0.0,19
2018,2,14,16,2,0,278,311.5,6.0,15.0,220.0,0.0,24
2018,2,14,17,2,0,303,310.0,7.0,15.0,225.0,0.0,29
2018,2,14,18,2,0,345,296.0,6.0,15.0,211.0,0.0,21
2018,2,14,19,2,0,316,324.0,6.0,15.0,218.0,0.0,22
2018,2,14,20,2,0,223,311.0,6.0,15.0,237.0,0.0,18
2018,2,14,21,2,0,143,311.0,6.0,20.0,212.0,0.0,8
2018,2,14,22,2,0,83,305.0,6.0,20.0,207.0,0.0,13
2018,2,14,23,2,0,47,261.0,6.0,20.0,191.0,0.0,9
2018,2,15,0,3,0,28,237.0,6.0,20.0,163.5,0.0,2
2018,2,15,1,3,0,13,424.0,6.0,20.0,351.0,0.0,2
2018,2,15,2,3,0,4,383.0,6.0,18.5,309.5,0.0,0
2018,2,15,3,3,0,9,376.0,6.0,20.0,211.0,0.0,0
2018,2,15,4,3,0,11,358.0,6.0,20.0,222.0,0.0,1
2018,2,15,5,3,0,4,282.0,6.5,18.5,217.5,0.0,0
2018,2,15,6,3,0,5,217.0,5.0,20.0,163.0,0.0,0
2018,2,15,7,3,0,17,299.0,6.0,20.0,200.0,0.0,3
2018,2,15,8,3,0,124,309.5,17.5,20.0,198.5,0.0,15
2018,2,15,9,3,0,258,298.0,7.0,15.0,198.5,0.0,18
2018,2,15,10,3,0,349,340.0,9.0,15.0,224.0,0.0,27
2018,2,15,11,3,0,397,329.0,9.0,15.0,210.0,0.0,32
2018,2,15,12,3,0,459,330.0,17.0,15.0,204.0,0.0,37
2018,2,15,13,3,0,402,322.5,10.0,15.0,217.5,0.0,23
2018,2,15,14,3,0,342,332.0,7.0,15.0,223.0,0.0,16
2018,2,15,15,3,0,285,327.0,6.0,15.0,214.0,0.0,27
2018,2,15,16,3,0,273,338.0,7.0,15.0,228.0,0.0,26
2018,2,15,17,3,0,337,308.0,7.0,15.0,211.0,0.0,33
2018,2,15,18,3,0,313,355.0,6.0,15.0,253.0,0.0,24
2018,2,15,19,3,0,327,355.0,6.0,15.0,253.0,0.0,27
2018,2,15,20,3,0,204,332.5,6.0,15.0,228.0,0.0,21
2018,2,15,21,3,0,136,361.0,25.0,19.5,228.5,0.0,15
2018,2,15,22,3,0,66,417.5,179.0,14.5,160.0,0.0,5
2018,2,15,23,3,0,42,284.5,6.0,20.0,175.5,0.0,7
2018,2,16,0,4,0,24,451.0,230.5,17.5,157.0,0.0,1
2018,2,16,1,4,0,11,418.0,11.0,20.0,240.0,0.0,1
2018,2,16,2,4,0,11,320.0,102.0,18.0,170.0,0.0,0
2018,2,16,3,4,0,13,386.0,318.0,9.0,94.0,0.0,1
2018,2,16,4,4,0,3,267.0,16.0,20.0,209.0,0.0,0
2018,2,16,5,4,0,4,351.5,55.0,15.0,173.0,2.0,0
2018,2,16,6,4,0,9,369.0,18.0,20.0,139.0,0.0,1
2018,2,16,7,4,0,18,368.0,7.0,12.5,246.5,0.0,4
2018,2,16,8,4,0,101,328.0,19.0,20.0,180.0,0.0,9
2018,2,16,9,4,0,274,312.5,7.0,15.0,217.5,0.0,21
2018,2,16,10,4,0,390,307.0,7.0,15.0,204.5,0.0,36
2018,2,16,11,4,0,421,303.0,8.0,15.0,211.0,0.0,40
2018,2,16,12,4,0,410,312.0,8.0,15.0,213.5,0.0,32
2018,2,16,13,4,0,432,331.0,36.0,15.0,198.5,0.0,39
2018,2,16,14,4,0,330,301.0,8.0,15.0,198.5,0.0,33
2018,2,16,15,4,0,291,307.0,6.0,15.0,221.0,0.0,23
2018,2,16,16,4,0,314,329.0,7.0,15.0,220.0,0.0,26
2018,2,16,17,4,0,334,327.0,7.0,15.0,231.0,0.0,36
2018,2,16,18,4,0,325,327.0,7.0,15.0,225.0,0.0,29
2018,2,16,19,4,0,317,327.0,6.0,15.0,233.0,0.0,26
2018,2,16,20,4,0,216,308.0,6.0,15.0,236.0,0.0,19
2018,2,16,21,4,0,137,313.0,7.0,19.0,220.0,0.0,14
2018,2,16,22,4,0,93,420.0,143.0,20.0,206.0,0.0,16
2018,2,16,23,4,0,45,321.0,6.0,20.0,232.0,0.0,5
2018,2,17,0,5,1,31,395.0,246.0,11.0,160.0,0.0,4
2018,2,17,1,5,1,16,336.5,83.0,20.0,188.0,0.0,1
2018,2,17,2,5,1,9,329.0,15.0,13.0,188.0,0.0,0
2018,2,17,3,5,1,18,420.5,218.5,5.5,0.0,0.0,2
2018,2,17,4,5,1,19,175.0,20.0,20.0,77.0,0.0,1
2018,2,17,5,5,1,2,309.0,6.0,20.0,193.5,0.0,0
2018,2,17,6,5,1,9,293.0,6.0,20.0,208.0,0.0,1
2018,2,17,7,5,1,18,251.0,6.0,20.0,201.5,0.0,1
2018,2,17,8,5,1,37,254.0,6.0,20.0,191.0,0.0,0
2018,2,17,9,5,1,133,308.0,6.0,20.0,219.0,0.0,12
2018,2,17,10,5,1,221,301.0,6.0,20.0,220.0,0.0,20
2018,2,17,11,5,1,257,306.0,6.0,20.0,220.0,0.0,22
2018,2,17,12,5,1,260,314.5,6.0,20.0,221.0,0.0,28
2018,2,17,13,5,1,238,308.5,6.0,20.0,219.5,0.0,23
2018,2,17,14,5,1,160,321.5,11.0,20.0,219.5,0.0,11
2018,2,17,15,5,1,123,396.0,112.0,20.0,200.0,0.0,10
2018,2,17,16,5,1,127,318.0,18.0,20.0,212.0,0.0,18
2018,2,17,17,5,1,122,346.0,6.0,20.0,243.5,0.0,17
2018,2,17,18,5,1,141,319.0,6.0,20.0,215.0,0.0,13
2018,2,17,19,5,1,138,324.5,6.0,20.0,258.0,0.0,6
2018,2,17,20,5,1,159,319.0,6.0,20.0,225.0,0.0,18
2018,2,17,21,5,1,119,366.0,39.0,20.0,207.0,0.0,6
2018,2,17,22,5,1,81,299.0,7.0,20.0,201.0,0.0,7
2018,2,17,23,5,1,57,293.0,6.0,20.0,210.0,0.0,8
2018,2,18,0,6,1,28,311.5,51.5,20.0,164.5,0.0,1
2018,2,18,1,6,1,16,248.0,5.0,20.0,173.0,0.0,3
2018,2,18,2,6,1,10,784.5,334.5,0.0,329.5,0.0,0
2018,2,18,3,6,1,16,357.0,199.0,20.0,137.5,0.0,1
2018,2,18,4,6,1,5,285.0,6.0,17.0,229.0,0.0,0
2018,2,18,5,6,1,14,254.5,10.0,14.0,167.0,0.0,0
2018,2,18,6,6,1,9,323.0,33.0,20.0,213.0,0.0,1
2018,2,18,7,6,1,11,306.0,8.0,16.0,212.0,0.0,1
2018,2,18,8,6,1,24,332.5,5.5,20.0,230.0,0.0,3
2018,2,18,9,6,1,54,374.5,6.0,20.0,264.0,3.0,5
2018,2,18,10,6,1,101,291.0,6.0,20.0,196.0,0.0,9
2018,2,18,11,6,1,127,321.0,6.0,20.0,227.0,0.0,14
2018,2,18,12,6,1,164,313.5,6.0,20.0,232.0,0.0,17
2018,2,18,13,6,1,136,343.5,6.0,20.0,257.5,0.0,10
2018,2,18,14,6,1,99,368.0,6.0,20.0,270.0,0.0,4
2018,2,18,15,6,1,86,341.5,7.0,20.0,229.0,0.0,8
2018,2,18,16,6,1,116,344.0,8.0,20.0,222.5,0.0,13
2018,2,18,17,6,1,99,296.0,6.0,20.0,225.0,0.0,4
2018,2,18,18,6,1,81,328.0,6.0,20.0,234.0,0.0,7
2018,2,18,19,6,1,104,304.0,6.0,20.0,211.0,0.0,9
2018,2,18,20,6,1,91,313.0,6.0,20.0,212.0,0.0,9
2018,2,18,21,6,1,93,319.0,23.0,20.0,194.0,0.0,14
2018,2,18,22,6,1,49,283.0,6.0,16.0,220.0,0.0,6
2018,2,18,23,6,1,36,256.0,6.0,20.0,185.5,0.0,5
2018,2,19,0,0,0,18,486.0,169.5,15.0,250.5,0.0,0
2018,2,19,1,0,0,15,250.0,6.0,17.0,198.0,0.0,2
2018,2,19,2,0,0,10,556.0,274.5,14.0,226.5,0.0,0
2018,2,19,3,0,0,4,314.5,6.0,16.0,236.5,10.0,0
2018,2,19,4,0,0,6,405.0,142.0,13.5,272.5,0.0,1
2018,2,19,5,0,0,7,632.0,8.0,20.0,307.0,8.0,1
2018,2,19,6,0,0,9,293.0,85.0,6.0,141.0,0.0,1
2018,2,19,7,0,0,24,306.0,6.0,20.0,215.0,0.0,2
2018,2,19,8,0,0,120,357.5,8.0,20.0,233.0,0.0,10
2018,2,19,9,0,0,291,292.0,7.0,15.0,189.0,0.0,20
2018,2,19,10,0,0,415,298.0,7.0,15.0,214.0,0.0,43
2018,2,19,11,0,0,461,284.0,7.0,15.0,195.0,0.0,42
2018,2,19,12,0,0,446,300.0,9.0,15.0,199.5,0.0,41
2018,2,19,13,0,0,473,328.0,11.0,15.0,213.0,0.0,51
2018,2,19,14,0,0,297,293.0,7.0,15.0,200.0,0.0,22
2018,2,19,15,0,0,277,332.0,7.0,15.0,229.0,0.0,17
2018,2,19,16,0,0,285,324.0,6.0,15.0,229.0,0.0,32
2018,2,19,17,0,0,341,330.0,8.0,15.0,223.0,0.0,31
2018,2,19,18,0,0,344,337.0,7.0,15.0,234.0,0.0,21
2018,2,19,19,0,0,324,312.0,6.0,15.0,228.0,0.0,36
2018,2,19,20,0,0,219,298.0,6.0,15.0,212.0,0.0,26
2018,2,19,21,0,0,150,351.5,47.0,19.0,203.5,0.0,10
2018,2,19,22,0,0,86,455.5,197.0,15.5,183.5,0.0,8
2018,2,19,23,0,0,40,315.5,7.0,20.0,198.0,0.0,5
2018,2,20,0,1,0,15,403.0,6.0,15.0,318.0,0.0,2
2018,2,20,1,1,0,9,296.0,6.0,20.0,213.0,0.0,0
2018,2,20,2,1,0,9,347.0,6.0,20.0,172.0,0.0,0
2018,2,20,3,1,0,5,354.0,6.0,12.0,280.0,0.0,1
2018,2,20,4,1,0,1,448.0,19.0,20.0,396.0,0.0,1
2018,2,20,5,1,0,2,266.5,24.0,12.0,187.0,12.5,0
2018,2,20,6,1,0,14,414.5,135.5,10.0,234.5,0.0,0
2018,2,20,7,1,0,23,274.0,6.0,20.0,171.0,3.0,2
2018,2,20,8,1,0,124,309.5,7.0,20.0,215.5,0.0,11
2018,2,20,9,1,0,347,298.0,8.0,15.0,192.0,0.0,26
2018,2,20,10,1,0,399,306.0,7.0,15.0,203.0,0.0,33
2018,2,20,11,1,0,442,303.5,8.0,15.0,208.0,0.0,36
2018,2,20,12,1,0,450,301.5,7.0,15.0,200.0,0.0,41
2018,2,20,13,1,0,416,312.5,7.0,15.0,215.5,0.0,38
2018,2,20,14,1,0,339,292.0,14.0,15.0,184.0,0.0,24
2018,2,20,15,1,0,359,385.0,43.0,15.0,206.0,0.0,34
2018,2,20,16,1,0,469,315.0,32.0,15.0,178.0,0.0,82
2018,2,20,17,1,0,351,316.0,7.0,15.0,229.0,0.0,32
2018,2,20,18,1,0,370,326.5,7.0,15.0,228.5,0.0,42
2018,2,20,19,1,0,318,312.0,7.0,15.0,220.5,0.0,30
2018,2,20,20,1,0,210,292.5,6.0,15.0,205.0,0.0,14
2018,2,20,21,1,0,116,383.5,51.5,20.0,222.5,0.0,10
2018,2,20,22,1,0,73,370.0,66.0,20.0,197.0,0.0,6
2018,2,20,23,1,0,53,258.0,6.0,20.0,178.0,0.0,7
2018,2,21,0,2,0,31,348.0,80.0,20.0,216.0,0.0,5
2018,2,21,1,2,0,17,302.0,6.0,20.0,187.0,0.0,0
2018,2,21,2,2,0,3,481.0,310.0,12.0,56.0,0.0,0
2018,2,21,3,2,0,2,353.0,5.0,20.0,253.5,22.0,0
2018,2,21,4,2,0,3,270.0,10.0,20.0,154.0,0.0,0
2018,2,21,5,2,0,5,258.0,8.0,13.0,158.0,0.0,0
2018,2,21,6,2,0,12,298.5,132.0,5.5,206.5,0.0,0
2018,2,21,7,2,0,20,243.5,6.0,20.0,193.0,0.0,1
2018,2,21,8,2,0,111,303.0,7.0,20.0,186.0,0.0,9
2018,2,21,9,2,0,282,308.5,7.0,15.0,206.0,0.0,22
2018,2,21,10,2,0,324,310.0,6.0,15.0,217.0,0.0,30
2018,2,21,11,2,0,457,298.0,7.0,15.0,199.0,0.0,29
2018,2,21,12,2,0,459,326.0,10.0,15.0,211.0,0.0,35
2018,2,21,13,2,0,465,347.0,15.0,15.0,201.0,0.0,36
2018,2,21,14,2,0,315,313.0,7.0,15.0,202.0,0.0,28
2018,2,21,15,2,0,352,346.0,8.0,15.0,210.5,0.0,24
2018,2,21,16,2,0,339,372.0,45.0,15.0,227.0,0.0,31
2018,2,21,17,2,0,326,291.5,8.0,15.0,195.0,0.0,34
2018,2,21,18,2,0,322,285.5,8.0,16.0,182.5,0.0,22
2018,2,21,19,2,0,346,289.5,7.0,15.0,204.5,0.0,31
2018,2,21,20,2,0,246,322.0,7.0,15.5,225.0,0.0,19
2018,2,21,21,2,0,168,371.0,83.5,20.0,174.0,0.0,13
2018,2,21,22,2,0,78,304.5,6.0,20.0,217.0,0.0,12
2018,2,21,23,2,0,46,311.0,6.0,20.0,207.5,0.0,10
2018,2,22,0,3,0,23,364.0,9.0,20.0,238.0,0.0,4
2018,2,22,1,3,0,9,349.0,6.0,20.0,230.0,0.0,1
2018,2,22,2,3,0,8,424.5,129.0,10.0,295.5,0.0,0
2018,2,22,3,3,0,7,509.0,166.0,12.0,209.0,0.0,0
2018,2,22,4,3,0,1,429.0,154.0,12.0,196.0,0.0,0
2018,2,22,5,3,0,6,393.5,66.0,11.5,240.0,0.0,1
2018,2,22,6,3,0,7,322.0,36.0,13.0,204.0,0.0,1
2018,2,22,7,3,0,34,277.5,6.0,20.0,200.0,0.0,11
2018,2,22,8,3,0,132,350.5,15.0,20.0,205.0,0.0,18
2018,2,22,9,3,0,303,321.0,7.0,15.0,218.0,0.0,30
2018,2,22,10,3,0,409,318.0,6.0,15.0,217.0,0.0,39
2018,2,22,11,3,0,431,302.0,7.0,15.0,203.0,0.0,46
2018,2,22,12,3,0,451,324.0,7.0,15.0,222.0,0.0,46
2018,2,22,13,3,0,409,309.0,7.0,15.0,211.0,0.0,39
2018,2,22,14,3,0,348,313.0,7.0,15.0,216.5,0.0,29
2018,2,22,15,3,0,261,304.0,6.0,15.0,213.0,0.0,19
2018,2,22,16,3,0,259,291.0,7.0,15.0,197.0,0.0,23
2018,2,22,17,3,0,290,333.0,6.5,15.0,238.0,0.0,32
2018,2,22,18,3,0,330,323.0,7.0,15.0,221.0,0.0,26
2018,2,22,19,3,0,292,346.5,6.0,15.0,228.5,0.0,37
2018,2,22,20,3,0,198,320.0,6.0,15.0,232.5,0.0,24
2018,2,22,21,3,0,137,366.0,48.0,20.0,193.0,0.0,15
2018,2,22,22,3,0,71,306.0,13.0,20.0,202.0,0.0,9
2018,2,22,23,3,0,37,302.0,6.0,20.0,172.0,0.0,1
2018,2,23,0,4,0,31,282.0,6.0,20.0,216.0,0.0,4
2018,2,23,1,4,0,13,269.0,7.0,20.0,183.0,0.0,0
2018,2,23,2,4,0,6,189.5,8.0,20.0,133.5,0.0,0
2018,2,23,3,4,0,6,359.0,6.0,16.0,263.5,0.0,2
2018,2,23,4,4,0,2,539.5,8.5,9.0,402.0,34.5,1
2018,2,23,5,4,0,7,429.0,9.0,20.0,341.0,0.0,0
2018,2,23,6,4,0,8,255.5,5.5,20.0,189.5,0.0,0
2018,2,23,7,4,0,20,314.5,7.0,20.0,212.0,0.0,1
2018,2,23,8,4,0,113,298.0,16.0,20.0,176.0,0.0,10
2018,2,23,9,4,0,296,303.5,7.0,15.0,212.0,0.0,32
2018,2,23,10,4,0,385,331.0,7.0,15.0,215.0,0.0,31
2018,2,23,11,4,0,438,327.0,7.0,15.0,228.0,0.0,39
2018,2,23,12,4,0,437,319.0,7.0,15.0,210.0,0.0,38
2018,2,23,13,4,0,380,324.0,7.0,15.0,215.0,0.0,45
2018,2,23,14,4,0,262,347.0,11.0,15.0,212.0,0.0,27
2018,2,23,15,4,0,282,326.0,9.0,15.0,219.5,0.0,26
2018,2,23,16,4,0,277,342.0,6.0,15.0,228.0,0.0,19
2018,2,23,17,4,0,290,321.5,6.0,15.0,228.0,0.0,29
2018,2,23,18,4,0,326,341.0,6.0,15.0,241.5,0.0,30
2018,2,23,19,4,0,275,321.0,6.0,15.0,221.0,0.0,25
2018,2,23,20,4,0,235,323.0,6.0,16.0,216.0,0.0,29
2018,2,23,21,4,0,135,484.0,203.0,20.0,201.0,0.0,22
2018,2,23,22,4,0,95,418.0,176.0,20.0,154.0,0.0,15
2018,2,23,23,4,0,47,268.0,6.0,20.0,204.0,0.0,7
2018,2,24,0,5,1,25,325.0,7.0,20.0,216.0,0.0,1
2018,2,24,1,5,1,17,205.0,5.0,20.0,150.0,0.0,1
2018,2,24,2,5,1,17,452.0,7.0,20.0,310.0,0.0,3
2018,2,24,3,5,1,14,347.0,6.0,18.5,206.0,0.0,2
2018,2,24,4,5,1,6,342.0,8.0,16.5,219.5,0.0,1
2018,2,24,5,5,1,7,199.0,5.0,20.0,158.0,0.0,0
2018,2,24,6,5,1,12,248.0,6.0,20.0,192.5,0.0,1
2018,2,24,7,5,1,15,229.0,6.0,20.0,141.0,0.0,3
2018,2,24,8,5,1,73,311.0,6.0,17.0,216.0,0.0,13
2018,2,24,9,5,1,121,324.0,6.0,20.0,227.0,0.0,28
2018,2,24,10,5,1,240,315.0,6.0,20.0,224.5,0.0,27
2018,2,24,11,5,1,276,298.5,6.0,20.0,207.5,0.0,28
2018,2,24,12,5,1,274,337.5,6.0,20.0,213.0,0.0,27
2018,2,24,13,5,1,228,331.0,6.0,20.0,241.0,0.0,17
2018,2,24,14,5,1,168,327.0,6.0,20.0,232.5,0.0,18
2018,2,24,15,5,1,130,329.0,14.0,20.0,209.0,0.0,4
2018,2,24,16,5,1,114,327.5,6.0,20.0,204.5,0.0,10
2018,2,24,17,5,1,154,339.0,6.0,20.0,233.0,0.0,11
2018,2,24,18,5,1,152,329.0,6.0,20.0,241.0,0.0,20
2018,2,24,19,5,1,137,325.0,6.0,20.0,241.0,0.0,22
2018,2,24,20,5,1,179,373.0,16.0,20.0,211.0,0.0,19
2018,2,24,21,5,1,89,313.0,6.0,20.0,212.0,0.0,10
2018,2,24,22,5,1,63,312.0,7.0,20.0,200.0,0.0,4
2018,2,24,23,5,1,50,267.5,6.0,20.0,196.0,0.0,5
2018,2,25,0,6,1,46,278.0,10.0,20.0,171.5,0.0,5
2018,2,25,1,6,1,39,292.0,56.0,20.0,162.0,0.0,0
2018,2,25,2,6,1,14,327.5,58.5,1.0,247.0,0.0,0
2018,2,25,3,6,1,16,246.0,9.5,19.5,150.0,0.0,3
2018,2,25,4,6,1,13,273.0,8.0,10.0,205.0,0.0,1
2018,2,25,5,6,1,13,230.0,7.0,20.0,147.0,0.0,1
2018,2,25,6,6,1,16,292.5,7.5,20.0,180.0,0.0,2
2018,2,25,7,6,1,19,311.0,6.0,20.0,248.0,0.0,1
2018,2,25,8,6,1,39,272.0,6.0,19.0,181.0,0.0,1
2018,2,25,9,6,1,153,386.0,16.0,20.0,250.0,0.0,15
2018,2,25,10,6,1,186,326.5,6.0,20.0,245.5,0.0,28
2018,2,25,11,6,1,180,308.0,6.0,17.0,225.0,0.0,16
2018,2,25,12,6,1,215,301.0,6.0,20.0,220.0,0.0,18
2018,2,25,13,6,1,164,325.0,6.0,18.0,237.0,0.0,14
2018,2,25,14,6,1,118,346.5,6.0,20.0,240.5,0.0,8
2018,2,25,15,6,1,100,322.5,35.0,15.0,213.5,0.0,2
2018,2,25,16,6,1,120,380.5,54.5,13.5,188.5,0.0,9
2018,2,25,17,6,1,93,321.0,6.0,20.0,241.0,0.0,9
2018,2,25,18,6,1,145,336.0,7.0,20.0,220.0,0.0,13
2018,2,25,19,6,1,161,333.0,21.0,20.0,211.0,0.0,17
2018,2,25,20,6,1,130,311.5,6.0,20.0,224.0,0.0,15
2018,2,25,21,6,1,86,341.5,6.0,20.0,227.0,0.0,13
2018,2,25,22,6,1,47,309.0,6.0,20.0,204.0,0.0,9
2018,2,25,23,6,1,34,260.0,6.0,20.0,183.0,0.0,8
2018,2,26,0,0,0,19,327.0,8.0,20.0,208.0,0.0,2
2018,2,26,1,0,0,7,284.0,6.0,20.0,212.0,0.0,3
2018,2,26,2,0,0,7,628.0,10.0,12.0,394.0,0.0,0
2018,2,26,3,0,0,3,692.0,7.0,20.0,574.0,27.0,0
2018,2,26,4,0,0,3,250.0,14.0,20.0,157.0,0.0,0
2018,2,26,5,0,0,5,508.0,6.0,17.0,461.0,0.0,2
2018,2,26,6,0,0,7,298.0,11.0,16.0,175.0,0.0,2
2018,2,26,7,0,0,36,322.5,6.0,20.0,227.5,0.0,2
2018,2,26,8,0,0,151,320.0,7.0,20.0,195.0,0.0,13
2018,2,26,9,0,0,338,311.0,7.0,15.0,207.0,0.0,24
2018,2,26,10,0,0,484,293.0,7.0,15.0,196.5,0.0,59
2018,2,26,11,0,0,499,306.0,7.0,15.0,201.0,0.0,40
2018,2,26,12,0,0,537,310.0,8.0,15.0,199.0,0.0,45
2018,2,26,13,0,0,459,326.0,24.0,15.0,195.0,0.0,40
2018,2,26,14,0,0,341,293.0,7.0,15.0,188.0,0.0,37
2018,2,26,15,0,0,336,316.0,6.0,15.0,224.0,0.0,31
2018,2,26,16,0,0,365,314.0,7.0,15.0,215.0,0.0,28
2018,2,26,17,0,0,325,345.0,7.0,15.0,238.0,0.0,30
2018,2,26,18,0,0,369,337.0,7.0,15.0,226.0,0.0,30
2018,2,26,19,0,0,360,338.5,8.0,15.0,233.0,0.0,34
2018,2,26,20,0,0,232,342.5,6.0,15.0,244.5,0.0,17
2018,2,26,21,0,0,144,304.5,6.0,18.5,208.0,0.0,15
2018,2,26,22,0,0,81,337.0,16.0,15.0,203.0,0.0,7
2018,2,26,23,0,0,38,312.5,6.0,13.0,221.5,0.0,3
2018,2,27,0,1,0,21,314.0,6.0,20.0,192.0,0.0,4
2018,2,27,1,1,0,11,281.0,6.0,20.0,218.0,0.0,1
2018,2,27,2,1,0,8,480.0,6.0,20.0,406.0,7.0,0
2018,2,27,3,1,0,3,354.0,7.0,20.0,257.0,0.0,0
2018,2,27,4,1,0,4,226.0,6.0,20.0,138.5,0.0,0
2018,2,27,5,1,0,6,301.5,6.0,14.0,252.5,0.0,0
2018,2,27,6,1,0,14,367.5,8.0,15.5,271.0,0.0,5
2018,2,27,7,1,0,36,334.0,6.0,0.0,222.5,0.0,6
2018,2,27,8,1,0,129,355.0,6.0,0.0,220.0,0.0,16
2018,2,27,9,1,0,329,310.0,7.0,0.0,216.0,0.0,40
2018,2,27,10,1,0,417,298.0,7.0,0.0,192.0,0.0,42
2018,2,27,11,1,0,470,314.5,12.0,0.0,201.5,0.0,41
2018,2,27,12,1,0,455,340.0,9.0,0.0,225.0,0.0,39
2018,2,27,13,1,0,435,312.0,7.0,0.0,202.0,0.0,35
2018,2,27,14,1,0,299,313.0,7.0,0.0,202.0,0.0,25
2018,2,27,15,1,0,327,318.0,6.0,0.0,211.0,0.0,23
2018,2,27,16,1,0,306,339.0,6.0,0.0,235.5,0.0,24
2018,2,27,17,1,0,349,330.0,7.0,0.0,221.0,0.0,29
2018,2,27,18,1,0,362,343.5,6.0,0.0,242.5,0.0,29
2018,2,27,19,1,0,365,355.0,9.0,0.0,232.0,0.0,22
2018,2,27,20,1,0,252,323.0,6.0,0.0,216.0,0.0,20
2018,2,27,21,1,0,150,352.5,16.5,0.0,224.0,0.0,13
2018,2,27,22,1,0,78,359.5,7.0,0.0,204.5,0.0,5
2018,2,27,23,1,0,52,318.0,7.0,0.0,187.0,0.0,4
2018,2,28,0,2,0,28,390.0,40.5,0.0,185.0,0.0,0
2018,2,28,1,2,0,19,404.0,57.0,0.0,266.0,0.0,0
2018,2,28,2,2,0,9,353.0,6.0,0.0,197.0,0.0,1
2018,2,28,3,2,0,12,198.0,6.0,0.0,132.0,0.0,0
2018,2,28,4,2,0,8,370.5,11.5,0.0,217.5,0.0,1
2018,2,28,5,2,0,10,165.0,6.0,0.0,88.0,0.0,0
2018,2,28,6,2,0,13,203.0,6.0,0.0,95.0,0.0,0
2018,2,28,7,2,0,39,167.0,6.0,0.0,80.0,0.0,3
2018,2,28,8,2,0,128,197.0,6.0,0.0,107.5,0.0,8
2018,2,28,9,2,0,357,191.0,7.0,0.0,98.0,0.0,23
2018,2,28,10,2,0,468,191.0,7.0,0.0,99.5,0.0,33
2018,2,28,11,2,0,563,192.0,7.0,0.0,103.0,0.0,49
2018,2,28,12,2,0,568,191.0,7.0,0.0,99.5,0.0,37
2018,2,28,13,2,0,497,222.0,7.0,0.0,120.0,0.0,43
2018,2,28,14,2,0,395,210.0,7.0,0.0,123.0,0.0,42
2018,2,28,15,2,0,359,209.0,7.0,0.0,116.0,0.0,22
2018,2,28,16,2,0,373,209.0,7.0,0.0,118.0,0.0,26
2018,2,28,17,2,0,385,227.0,7.0,0.0,130.0,0.0,33
2018,2,28,18,2,0,389,227.0,6.0,0.0,131.0,0.0,32
2018,2,28,19,2,0,417,211.0,6.0,0.0,129.0,0.0,29
2018,2,28,20,2,0,332,225.5,6.0,0.0,141.5,0.0,23
2018,2,28,21,2,0,170,191.0,6.0,0.0,105.5,0.0,16
2018,2,28,22,2,0,132,219.0,7.5,0.0,121.5,0.0,10
2018,2,28,23,2,0,74,200.0,6.0,0.0,125.0,0.0,4
